SHORT SUMMARY REPORT 

METRICS/TRANSCRIPTS                                    Cauris_20141022_RNASeq_50PE_clean.combined.okay  

 == BASIC TRANSCRIPTS METRICS == 
Transcripts                                            36370                                            
Transcripts > 500 bp                                   16754                                            
Transcripts > 1000 bp                                  10876
