<?xml version='1.0' encoding='UTF-8' ?>
<svg xmlns='http://www.w3.org/2000/svg' xmlns:xlink='http://www.w3.org/1999/xlink' viewBox='0 0 1080.00 504.00'>
<defs>
  <style type='text/css'><![CDATA[
    line, polyline, polygon, path, rect, circle {
      fill: none;
      stroke: #000000;
      stroke-linecap: round;
      stroke-linejoin: round;
      stroke-miterlimit: 10.00;
    }
  ]]></style>
</defs>
<rect width='100%' height='100%' style='stroke: none; fill: #FFFFFF;'/>
<rect x='0.00000000000013' y='0.00' width='1080.00' height='504.00' style='stroke-width: 1.07; stroke: #FFFFFF; fill: #FFFFFF;' />
<defs>
  <clipPath id='cpNDU4Ljc1fDEwNzQuNTJ8NDY2LjY3fDI1Ljcz'>
    <rect x='458.75' y='25.73' width='615.77' height='440.94' />
  </clipPath>
</defs>
<rect x='458.75' y='25.73' width='615.77' height='440.94' style='stroke-width: 1.07; stroke: none; fill: #EBEBEB;' clip-path='url(#cpNDU4Ljc1fDEwNzQuNTJ8NDY2LjY3fDI1Ljcz)' />
<polyline points='578.81,466.67 578.81,25.73 ' style='stroke-width: 0.53; stroke: #FFFFFF; stroke-linecap: butt;' clip-path='url(#cpNDU4Ljc1fDEwNzQuNTJ8NDY2LjY3fDI1Ljcz)' />
<polyline points='762.95,466.67 762.95,25.73 ' style='stroke-width: 0.53; stroke: #FFFFFF; stroke-linecap: butt;' clip-path='url(#cpNDU4Ljc1fDEwNzQuNTJ8NDY2LjY3fDI1Ljcz)' />
<polyline points='947.10,466.67 947.10,25.73 ' style='stroke-width: 0.53; stroke: #FFFFFF; stroke-linecap: butt;' clip-path='url(#cpNDU4Ljc1fDEwNzQuNTJ8NDY2LjY3fDI1Ljcz)' />
<polyline points='458.75,453.57 1074.52,453.57 ' style='stroke-width: 1.07; stroke: #FFFFFF; stroke-linecap: butt;' clip-path='url(#cpNDU4Ljc1fDEwNzQuNTJ8NDY2LjY3fDI1Ljcz)' />
<polyline points='458.75,431.74 1074.52,431.74 ' style='stroke-width: 1.07; stroke: #FFFFFF; stroke-linecap: butt;' clip-path='url(#cpNDU4Ljc1fDEwNzQuNTJ8NDY2LjY3fDI1Ljcz)' />
<polyline points='458.75,409.92 1074.52,409.92 ' style='stroke-width: 1.07; stroke: #FFFFFF; stroke-linecap: butt;' clip-path='url(#cpNDU4Ljc1fDEwNzQuNTJ8NDY2LjY3fDI1Ljcz)' />
<polyline points='458.75,388.09 1074.52,388.09 ' style='stroke-width: 1.07; stroke: #FFFFFF; stroke-linecap: butt;' clip-path='url(#cpNDU4Ljc1fDEwNzQuNTJ8NDY2LjY3fDI1Ljcz)' />
<polyline points='458.75,366.26 1074.52,366.26 ' style='stroke-width: 1.07; stroke: #FFFFFF; stroke-linecap: butt;' clip-path='url(#cpNDU4Ljc1fDEwNzQuNTJ8NDY2LjY3fDI1Ljcz)' />
<polyline points='458.75,344.43 1074.52,344.43 ' style='stroke-width: 1.07; stroke: #FFFFFF; stroke-linecap: butt;' clip-path='url(#cpNDU4Ljc1fDEwNzQuNTJ8NDY2LjY3fDI1Ljcz)' />
<polyline points='458.75,322.60 1074.52,322.60 ' style='stroke-width: 1.07; stroke: #FFFFFF; stroke-linecap: butt;' clip-path='url(#cpNDU4Ljc1fDEwNzQuNTJ8NDY2LjY3fDI1Ljcz)' />
<polyline points='458.75,300.77 1074.52,300.77 ' style='stroke-width: 1.07; stroke: #FFFFFF; stroke-linecap: butt;' clip-path='url(#cpNDU4Ljc1fDEwNzQuNTJ8NDY2LjY3fDI1Ljcz)' />
<polyline points='458.75,278.95 1074.52,278.95 ' style='stroke-width: 1.07; stroke: #FFFFFF; stroke-linecap: butt;' clip-path='url(#cpNDU4Ljc1fDEwNzQuNTJ8NDY2LjY3fDI1Ljcz)' />
<polyline points='458.75,257.12 1074.52,257.12 ' style='stroke-width: 1.07; stroke: #FFFFFF; stroke-linecap: butt;' clip-path='url(#cpNDU4Ljc1fDEwNzQuNTJ8NDY2LjY3fDI1Ljcz)' />
<polyline points='458.75,235.29 1074.52,235.29 ' style='stroke-width: 1.07; stroke: #FFFFFF; stroke-linecap: butt;' clip-path='url(#cpNDU4Ljc1fDEwNzQuNTJ8NDY2LjY3fDI1Ljcz)' />
<polyline points='458.75,213.46 1074.52,213.46 ' style='stroke-width: 1.07; stroke: #FFFFFF; stroke-linecap: butt;' clip-path='url(#cpNDU4Ljc1fDEwNzQuNTJ8NDY2LjY3fDI1Ljcz)' />
<polyline points='458.75,191.63 1074.52,191.63 ' style='stroke-width: 1.07; stroke: #FFFFFF; stroke-linecap: butt;' clip-path='url(#cpNDU4Ljc1fDEwNzQuNTJ8NDY2LjY3fDI1Ljcz)' />
<polyline points='458.75,169.80 1074.52,169.80 ' style='stroke-width: 1.07; stroke: #FFFFFF; stroke-linecap: butt;' clip-path='url(#cpNDU4Ljc1fDEwNzQuNTJ8NDY2LjY3fDI1Ljcz)' />
<polyline points='458.75,147.97 1074.52,147.97 ' style='stroke-width: 1.07; stroke: #FFFFFF; stroke-linecap: butt;' clip-path='url(#cpNDU4Ljc1fDEwNzQuNTJ8NDY2LjY3fDI1Ljcz)' />
<polyline points='458.75,126.15 1074.52,126.15 ' style='stroke-width: 1.07; stroke: #FFFFFF; stroke-linecap: butt;' clip-path='url(#cpNDU4Ljc1fDEwNzQuNTJ8NDY2LjY3fDI1Ljcz)' />
<polyline points='458.75,104.32 1074.52,104.32 ' style='stroke-width: 1.07; stroke: #FFFFFF; stroke-linecap: butt;' clip-path='url(#cpNDU4Ljc1fDEwNzQuNTJ8NDY2LjY3fDI1Ljcz)' />
<polyline points='458.75,82.49 1074.52,82.49 ' style='stroke-width: 1.07; stroke: #FFFFFF; stroke-linecap: butt;' clip-path='url(#cpNDU4Ljc1fDEwNzQuNTJ8NDY2LjY3fDI1Ljcz)' />
<polyline points='458.75,60.66 1074.52,60.66 ' style='stroke-width: 1.07; stroke: #FFFFFF; stroke-linecap: butt;' clip-path='url(#cpNDU4Ljc1fDEwNzQuNTJ8NDY2LjY3fDI1Ljcz)' />
<polyline points='458.75,38.83 1074.52,38.83 ' style='stroke-width: 1.07; stroke: #FFFFFF; stroke-linecap: butt;' clip-path='url(#cpNDU4Ljc1fDEwNzQuNTJ8NDY2LjY3fDI1Ljcz)' />
<polyline points='486.74,466.67 486.74,25.73 ' style='stroke-width: 1.07; stroke: #FFFFFF; stroke-linecap: butt;' clip-path='url(#cpNDU4Ljc1fDEwNzQuNTJ8NDY2LjY3fDI1Ljcz)' />
<polyline points='670.88,466.67 670.88,25.73 ' style='stroke-width: 1.07; stroke: #FFFFFF; stroke-linecap: butt;' clip-path='url(#cpNDU4Ljc1fDEwNzQuNTJ8NDY2LjY3fDI1Ljcz)' />
<polyline points='855.02,466.67 855.02,25.73 ' style='stroke-width: 1.07; stroke: #FFFFFF; stroke-linecap: butt;' clip-path='url(#cpNDU4Ljc1fDEwNzQuNTJ8NDY2LjY3fDI1Ljcz)' />
<polyline points='1039.17,466.67 1039.17,25.73 ' style='stroke-width: 1.07; stroke: #FFFFFF; stroke-linecap: butt;' clip-path='url(#cpNDU4Ljc1fDEwNzQuNTJ8NDY2LjY3fDI1Ljcz)' />
<rect x='486.74' y='33.37' width='550.67' height='10.91' style='stroke-width: 1.07; stroke: none; stroke-linecap: square; stroke-linejoin: miter; fill: #00008B;' clip-path='url(#cpNDU4Ljc1fDEwNzQuNTJ8NDY2LjY3fDI1Ljcz)' />
<rect x='486.74' y='55.20' width='33.27' height='10.91' style='stroke-width: 1.07; stroke: none; stroke-linecap: square; stroke-linejoin: miter; fill: #00008B;' clip-path='url(#cpNDU4Ljc1fDEwNzQuNTJ8NDY2LjY3fDI1Ljcz)' />
<rect x='486.74' y='77.03' width='27.49' height='10.91' style='stroke-width: 1.07; stroke: none; stroke-linecap: square; stroke-linejoin: miter; fill: #00008B;' clip-path='url(#cpNDU4Ljc1fDEwNzQuNTJ8NDY2LjY3fDI1Ljcz)' />
<rect x='486.74' y='98.86' width='22.59' height='10.91' style='stroke-width: 1.07; stroke: none; stroke-linecap: square; stroke-linejoin: miter; fill: #00008B;' clip-path='url(#cpNDU4Ljc1fDEwNzQuNTJ8NDY2LjY3fDI1Ljcz)' />
<rect x='486.74' y='120.69' width='21.56' height='10.91' style='stroke-width: 1.07; stroke: none; stroke-linecap: square; stroke-linejoin: miter; fill: #00008B;' clip-path='url(#cpNDU4Ljc1fDEwNzQuNTJ8NDY2LjY3fDI1Ljcz)' />
<rect x='486.74' y='142.52' width='19.81' height='10.91' style='stroke-width: 1.07; stroke: none; stroke-linecap: square; stroke-linejoin: miter; fill: #00008B;' clip-path='url(#cpNDU4Ljc1fDEwNzQuNTJ8NDY2LjY3fDI1Ljcz)' />
<rect x='486.74' y='164.35' width='19.80' height='10.91' style='stroke-width: 1.07; stroke: none; stroke-linecap: square; stroke-linejoin: miter; fill: #00008B;' clip-path='url(#cpNDU4Ljc1fDEwNzQuNTJ8NDY2LjY3fDI1Ljcz)' />
<rect x='486.74' y='186.17' width='15.50' height='10.91' style='stroke-width: 1.07; stroke: none; stroke-linecap: square; stroke-linejoin: miter; fill: #00008B;' clip-path='url(#cpNDU4Ljc1fDEwNzQuNTJ8NDY2LjY3fDI1Ljcz)' />
<rect x='486.74' y='208.00' width='13.87' height='10.91' style='stroke-width: 1.07; stroke: none; stroke-linecap: square; stroke-linejoin: miter; fill: #00008B;' clip-path='url(#cpNDU4Ljc1fDEwNzQuNTJ8NDY2LjY3fDI1Ljcz)' />
<rect x='486.74' y='229.83' width='11.77' height='10.91' style='stroke-width: 1.07; stroke: none; stroke-linecap: square; stroke-linejoin: miter; fill: #00008B;' clip-path='url(#cpNDU4Ljc1fDEwNzQuNTJ8NDY2LjY3fDI1Ljcz)' />
<rect x='486.74' y='251.66' width='11.23' height='10.91' style='stroke-width: 1.07; stroke: none; stroke-linecap: square; stroke-linejoin: miter; fill: #00008B;' clip-path='url(#cpNDU4Ljc1fDEwNzQuNTJ8NDY2LjY3fDI1Ljcz)' />
<rect x='486.74' y='273.49' width='10.61' height='10.91' style='stroke-width: 1.07; stroke: none; stroke-linecap: square; stroke-linejoin: miter; fill: #00008B;' clip-path='url(#cpNDU4Ljc1fDEwNzQuNTJ8NDY2LjY3fDI1Ljcz)' />
<rect x='486.74' y='295.32' width='8.60' height='10.91' style='stroke-width: 1.07; stroke: none; stroke-linecap: square; stroke-linejoin: miter; fill: #00008B;' clip-path='url(#cpNDU4Ljc1fDEwNzQuNTJ8NDY2LjY3fDI1Ljcz)' />
<rect x='486.74' y='317.15' width='8.30' height='10.91' style='stroke-width: 1.07; stroke: none; stroke-linecap: square; stroke-linejoin: miter; fill: #00008B;' clip-path='url(#cpNDU4Ljc1fDEwNzQuNTJ8NDY2LjY3fDI1Ljcz)' />
<rect x='486.74' y='338.97' width='8.29' height='10.91' style='stroke-width: 1.07; stroke: none; stroke-linecap: square; stroke-linejoin: miter; fill: #00008B;' clip-path='url(#cpNDU4Ljc1fDEwNzQuNTJ8NDY2LjY3fDI1Ljcz)' />
<rect x='486.74' y='360.80' width='7.90' height='10.91' style='stroke-width: 1.07; stroke: none; stroke-linecap: square; stroke-linejoin: miter; fill: #00008B;' clip-path='url(#cpNDU4Ljc1fDEwNzQuNTJ8NDY2LjY3fDI1Ljcz)' />
<rect x='486.74' y='382.63' width='7.16' height='10.91' style='stroke-width: 1.07; stroke: none; stroke-linecap: square; stroke-linejoin: miter; fill: #00008B;' clip-path='url(#cpNDU4Ljc1fDEwNzQuNTJ8NDY2LjY3fDI1Ljcz)' />
<rect x='486.74' y='404.46' width='6.56' height='10.91' style='stroke-width: 1.07; stroke: none; stroke-linecap: square; stroke-linejoin: miter; fill: #00008B;' clip-path='url(#cpNDU4Ljc1fDEwNzQuNTJ8NDY2LjY3fDI1Ljcz)' />
<rect x='486.74' y='426.29' width='6.32' height='10.91' style='stroke-width: 1.07; stroke: none; stroke-linecap: square; stroke-linejoin: miter; fill: #00008B;' clip-path='url(#cpNDU4Ljc1fDEwNzQuNTJ8NDY2LjY3fDI1Ljcz)' />
<rect x='486.74' y='448.12' width='6.15' height='10.91' style='stroke-width: 1.07; stroke: none; stroke-linecap: square; stroke-linejoin: miter; fill: #00008B;' clip-path='url(#cpNDU4Ljc1fDEwNzQuNTJ8NDY2LjY3fDI1Ljcz)' />
<g clip-path='url(#cpNDU4Ljc1fDEwNzQuNTJ8NDY2LjY3fDI1Ljcz)'><text x='1040.49' y='40.73' style='font-size: 11.04px; font-family: Liberation Sans;' textLength='30.70px' lengthAdjust='spacingAndGlyphs'>29905</text></g>
<g clip-path='url(#cpNDU4Ljc1fDEwNzQuNTJ8NDY2LjY3fDI1Ljcz)'><text x='522.47' y='62.56' style='font-size: 11.04px; font-family: Liberation Sans;' textLength='24.56px' lengthAdjust='spacingAndGlyphs'>1807</text></g>
<g clip-path='url(#cpNDU4Ljc1fDEwNzQuNTJ8NDY2LjY3fDI1Ljcz)'><text x='516.69' y='84.39' style='font-size: 11.04px; font-family: Liberation Sans;' textLength='24.56px' lengthAdjust='spacingAndGlyphs'>1493</text></g>
<g clip-path='url(#cpNDU4Ljc1fDEwNzQuNTJ8NDY2LjY3fDI1Ljcz)'><text x='511.79' y='106.22' style='font-size: 11.04px; font-family: Liberation Sans;' textLength='24.56px' lengthAdjust='spacingAndGlyphs'>1227</text></g>
<g clip-path='url(#cpNDU4Ljc1fDEwNzQuNTJ8NDY2LjY3fDI1Ljcz)'><text x='510.76' y='128.04' style='font-size: 11.04px; font-family: Liberation Sans;' textLength='24.56px' lengthAdjust='spacingAndGlyphs'>1171</text></g>
<g clip-path='url(#cpNDU4Ljc1fDEwNzQuNTJ8NDY2LjY3fDI1Ljcz)'><text x='509.01' y='149.87' style='font-size: 11.04px; font-family: Liberation Sans;' textLength='24.56px' lengthAdjust='spacingAndGlyphs'>1076</text></g>
<g clip-path='url(#cpNDU4Ljc1fDEwNzQuNTJ8NDY2LjY3fDI1Ljcz)'><text x='508.99' y='171.70' style='font-size: 11.04px; font-family: Liberation Sans;' textLength='24.56px' lengthAdjust='spacingAndGlyphs'>1075</text></g>
<g clip-path='url(#cpNDU4Ljc1fDEwNzQuNTJ8NDY2LjY3fDI1Ljcz)'><text x='504.09' y='193.53' style='font-size: 11.04px; font-family: Liberation Sans;' textLength='18.42px' lengthAdjust='spacingAndGlyphs'>842</text></g>
<g clip-path='url(#cpNDU4Ljc1fDEwNzQuNTJ8NDY2LjY3fDI1Ljcz)'><text x='502.45' y='215.36' style='font-size: 11.04px; font-family: Liberation Sans;' textLength='18.42px' lengthAdjust='spacingAndGlyphs'>753</text></g>
<g clip-path='url(#cpNDU4Ljc1fDEwNzQuNTJ8NDY2LjY3fDI1Ljcz)'><text x='500.35' y='237.19' style='font-size: 11.04px; font-family: Liberation Sans;' textLength='18.42px' lengthAdjust='spacingAndGlyphs'>639</text></g>
<g clip-path='url(#cpNDU4Ljc1fDEwNzQuNTJ8NDY2LjY3fDI1Ljcz)'><text x='499.82' y='259.02' style='font-size: 11.04px; font-family: Liberation Sans;' textLength='18.42px' lengthAdjust='spacingAndGlyphs'>610</text></g>
<g clip-path='url(#cpNDU4Ljc1fDEwNzQuNTJ8NDY2LjY3fDI1Ljcz)'><text x='499.19' y='280.84' style='font-size: 11.04px; font-family: Liberation Sans;' textLength='18.42px' lengthAdjust='spacingAndGlyphs'>576</text></g>
<g clip-path='url(#cpNDU4Ljc1fDEwNzQuNTJ8NDY2LjY3fDI1Ljcz)'><text x='497.18' y='302.67' style='font-size: 11.04px; font-family: Liberation Sans;' textLength='18.42px' lengthAdjust='spacingAndGlyphs'>467</text></g>
<g clip-path='url(#cpNDU4Ljc1fDEwNzQuNTJ8NDY2LjY3fDI1Ljcz)'><text x='496.89' y='324.50' style='font-size: 11.04px; font-family: Liberation Sans;' textLength='18.42px' lengthAdjust='spacingAndGlyphs'>451</text></g>
<g clip-path='url(#cpNDU4Ljc1fDEwNzQuNTJ8NDY2LjY3fDI1Ljcz)'><text x='496.87' y='346.33' style='font-size: 11.04px; font-family: Liberation Sans;' textLength='18.42px' lengthAdjust='spacingAndGlyphs'>450</text></g>
<g clip-path='url(#cpNDU4Ljc1fDEwNzQuNTJ8NDY2LjY3fDI1Ljcz)'><text x='496.48' y='368.16' style='font-size: 11.04px; font-family: Liberation Sans;' textLength='18.42px' lengthAdjust='spacingAndGlyphs'>429</text></g>
<g clip-path='url(#cpNDU4Ljc1fDEwNzQuNTJ8NDY2LjY3fDI1Ljcz)'><text x='495.75' y='389.99' style='font-size: 11.04px; font-family: Liberation Sans;' textLength='18.42px' lengthAdjust='spacingAndGlyphs'>389</text></g>
<g clip-path='url(#cpNDU4Ljc1fDEwNzQuNTJ8NDY2LjY3fDI1Ljcz)'><text x='495.14' y='411.82' style='font-size: 11.04px; font-family: Liberation Sans;' textLength='18.42px' lengthAdjust='spacingAndGlyphs'>356</text></g>
<g clip-path='url(#cpNDU4Ljc1fDEwNzQuNTJ8NDY2LjY3fDI1Ljcz)'><text x='494.90' y='433.64' style='font-size: 11.04px; font-family: Liberation Sans;' textLength='18.42px' lengthAdjust='spacingAndGlyphs'>343</text></g>
<g clip-path='url(#cpNDU4Ljc1fDEwNzQuNTJ8NDY2LjY3fDI1Ljcz)'><text x='494.73' y='455.47' style='font-size: 11.04px; font-family: Liberation Sans;' textLength='18.42px' lengthAdjust='spacingAndGlyphs'>334</text></g>
<defs>
  <clipPath id='cpMC4wMHwxMDgwLjAwfDUwNC4wMHwwLjAw'>
    <rect x='0.00' y='0.00' width='1080.00' height='504.00' />
  </clipPath>
</defs>
<g clip-path='url(#cpMC4wMHwxMDgwLjAwfDUwNC4wMHwwLjAw)'><text x='149.04' y='457.70' style='font-size: 12.00px; fill: #4D4D4D; font-family: Liberation Sans;' textLength='304.78px' lengthAdjust='spacingAndGlyphs'>Crassostrea gigas (Pacific oyster) (Crassostrea angulata)</text></g>
<g clip-path='url(#cpMC4wMHwxMDgwLjAwfDUwNC4wMHwwLjAw)'><text x='411.15' y='435.87' style='font-size: 12.00px; fill: #4D4D4D; font-family: Liberation Sans;' textLength='42.67px' lengthAdjust='spacingAndGlyphs'>EUMVA</text></g>
<g clip-path='url(#cpMC4wMHwxMDgwLjAwfDUwNC4wMHwwLjAw)'><text x='426.48' y='414.04' style='font-size: 12.00px; fill: #4D4D4D; font-family: Liberation Sans;' textLength='27.34px' lengthAdjust='spacingAndGlyphs'>Acari</text></g>
<g clip-path='url(#cpMC4wMHwxMDgwLjAwfDUwNC4wMHwwLjAw)'><text x='68.28' y='392.22' style='font-size: 12.00px; fill: #4D4D4D; font-family: Liberation Sans;' textLength='385.54px' lengthAdjust='spacingAndGlyphs'>Mizuhopecten yessoensis (Japanese scallop) (Patinopecten yessoensis)</text></g>
<g clip-path='url(#cpMC4wMHwxMDgwLjAwfDUwNC4wMHwwLjAw)'><text x='271.07' y='370.39' style='font-size: 12.00px; fill: #4D4D4D; font-family: Liberation Sans;' textLength='182.75px' lengthAdjust='spacingAndGlyphs'>Capitella teleta (Polychaete worm)</text></g>
<g clip-path='url(#cpMC4wMHwxMDgwLjAwfDUwNC4wMHwwLjAw)'><text x='258.39' y='348.56' style='font-size: 12.00px; fill: #4D4D4D; font-family: Liberation Sans;' textLength='195.43px' lengthAdjust='spacingAndGlyphs'>Stichopus japonicus (Sea cucumber)</text></g>
<g clip-path='url(#cpMC4wMHwxMDgwLjAwfDUwNC4wMHwwLjAw)'><text x='21.65' y='326.73' style='font-size: 12.00px; fill: #4D4D4D; font-family: Liberation Sans;' textLength='432.17px' lengthAdjust='spacingAndGlyphs'>Chiloscyllium punctatum (Brownbanded bambooshark) (Hemiscyllium punctatum)</text></g>
<g clip-path='url(#cpMC4wMHwxMDgwLjAwfDUwNC4wMHwwLjAw)'><text x='399.13' y='304.90' style='font-size: 12.00px; fill: #4D4D4D; font-family: Liberation Sans;' textLength='54.69px' lengthAdjust='spacingAndGlyphs'>Crustacea</text></g>
<g clip-path='url(#cpMC4wMHwxMDgwLjAwfDUwNC4wMHwwLjAw)'><text x='188.35' y='283.07' style='font-size: 12.00px; fill: #4D4D4D; font-family: Liberation Sans;' textLength='265.47px' lengthAdjust='spacingAndGlyphs'>Strongylocentrotus purpuratus (Purple sea urchin)</text></g>
<g clip-path='url(#cpMC4wMHwxMDgwLjAwfDUwNC4wMHwwLjAw)'><text x='407.80' y='261.24' style='font-size: 12.00px; fill: #4D4D4D; font-family: Liberation Sans;' textLength='46.03px' lengthAdjust='spacingAndGlyphs'>Metazoa</text></g>
<g clip-path='url(#cpMC4wMHwxMDgwLjAwfDUwNC4wMHwwLjAw)'><text x='405.13' y='239.42' style='font-size: 12.00px; fill: #4D4D4D; font-family: Liberation Sans;' textLength='48.69px' lengthAdjust='spacingAndGlyphs'>Teleostei</text></g>
<g clip-path='url(#cpMC4wMHwxMDgwLjAwfDUwNC4wMHwwLjAw)'><text x='410.47' y='217.59' style='font-size: 12.00px; fill: #4D4D4D; font-family: Liberation Sans;' textLength='43.35px' lengthAdjust='spacingAndGlyphs'>Bilateria</text></g>
<g clip-path='url(#cpMC4wMHwxMDgwLjAwfDUwNC4wMHwwLjAw)'><text x='313.77' y='195.76' style='font-size: 12.00px; fill: #4D4D4D; font-family: Liberation Sans;' textLength='140.06px' lengthAdjust='spacingAndGlyphs'>Bacillus sp. BAC-SubDo-3</text></g>
<g clip-path='url(#cpMC4wMHwxMDgwLjAwfDUwNC4wMHwwLjAw)'><text x='167.70' y='173.93' style='font-size: 12.00px; fill: #4D4D4D; font-family: Liberation Sans;' textLength='286.12px' lengthAdjust='spacingAndGlyphs'>Branchiostoma floridae (Florida lancelet) (Amphioxus)</text></g>
<g clip-path='url(#cpMC4wMHwxMDgwLjAwfDUwNC4wMHwwLjAw)'><text x='208.37' y='152.10' style='font-size: 12.00px; fill: #4D4D4D; font-family: Liberation Sans;' textLength='245.45px' lengthAdjust='spacingAndGlyphs'>Nematostella vectensis (Starlet sea anemone)</text></g>
<g clip-path='url(#cpMC4wMHwxMDgwLjAwfDUwNC4wMHwwLjAw)'><text x='376.43' y='130.27' style='font-size: 12.00px; fill: #4D4D4D; font-family: Liberation Sans;' textLength='77.40px' lengthAdjust='spacingAndGlyphs'>Lingula unguis</text></g>
<g clip-path='url(#cpMC4wMHwxMDgwLjAwfDUwNC4wMHwwLjAw)'><text x='409.13' y='108.45' style='font-size: 12.00px; fill: #4D4D4D; font-family: Liberation Sans;' textLength='44.69px' lengthAdjust='spacingAndGlyphs'>Cnidaria</text></g>
<g clip-path='url(#cpMC4wMHwxMDgwLjAwfDUwNC4wMHwwLjAw)'><text x='236.39' y='86.62' style='font-size: 12.00px; fill: #4D4D4D; font-family: Liberation Sans;' textLength='217.43px' lengthAdjust='spacingAndGlyphs'>Nephila clavipes (Golden silk orbweaver)</text></g>
<g clip-path='url(#cpMC4wMHwxMDgwLjAwfDUwNC4wMHwwLjAw)'><text x='207.72' y='64.79' style='font-size: 12.00px; fill: #4D4D4D; font-family: Liberation Sans;' textLength='246.11px' lengthAdjust='spacingAndGlyphs'>Stylophora pistillata (Smooth cauliflower coral)</text></g>
<g clip-path='url(#cpMC4wMHwxMDgwLjAwfDUwNC4wMHwwLjAw)'><text x='249.69' y='42.96' style='font-size: 12.00px; fill: #4D4D4D; font-family: Liberation Sans;' textLength='204.13px' lengthAdjust='spacingAndGlyphs'>Amphimedon queenslandica (Sponge)</text></g>
<polyline points='456.01,453.57 458.75,453.57 ' style='stroke-width: 1.07; stroke: #333333; stroke-linecap: butt;' clip-path='url(#cpMC4wMHwxMDgwLjAwfDUwNC4wMHwwLjAw)' />
<polyline points='456.01,431.74 458.75,431.74 ' style='stroke-width: 1.07; stroke: #333333; stroke-linecap: butt;' clip-path='url(#cpMC4wMHwxMDgwLjAwfDUwNC4wMHwwLjAw)' />
<polyline points='456.01,409.92 458.75,409.92 ' style='stroke-width: 1.07; stroke: #333333; stroke-linecap: butt;' clip-path='url(#cpMC4wMHwxMDgwLjAwfDUwNC4wMHwwLjAw)' />
<polyline points='456.01,388.09 458.75,388.09 ' style='stroke-width: 1.07; stroke: #333333; stroke-linecap: butt;' clip-path='url(#cpMC4wMHwxMDgwLjAwfDUwNC4wMHwwLjAw)' />
<polyline points='456.01,366.26 458.75,366.26 ' style='stroke-width: 1.07; stroke: #333333; stroke-linecap: butt;' clip-path='url(#cpMC4wMHwxMDgwLjAwfDUwNC4wMHwwLjAw)' />
<polyline points='456.01,344.43 458.75,344.43 ' style='stroke-width: 1.07; stroke: #333333; stroke-linecap: butt;' clip-path='url(#cpMC4wMHwxMDgwLjAwfDUwNC4wMHwwLjAw)' />
<polyline points='456.01,322.60 458.75,322.60 ' style='stroke-width: 1.07; stroke: #333333; stroke-linecap: butt;' clip-path='url(#cpMC4wMHwxMDgwLjAwfDUwNC4wMHwwLjAw)' />
<polyline points='456.01,300.77 458.75,300.77 ' style='stroke-width: 1.07; stroke: #333333; stroke-linecap: butt;' clip-path='url(#cpMC4wMHwxMDgwLjAwfDUwNC4wMHwwLjAw)' />
<polyline points='456.01,278.95 458.75,278.95 ' style='stroke-width: 1.07; stroke: #333333; stroke-linecap: butt;' clip-path='url(#cpMC4wMHwxMDgwLjAwfDUwNC4wMHwwLjAw)' />
<polyline points='456.01,257.12 458.75,257.12 ' style='stroke-width: 1.07; stroke: #333333; stroke-linecap: butt;' clip-path='url(#cpMC4wMHwxMDgwLjAwfDUwNC4wMHwwLjAw)' />
<polyline points='456.01,235.29 458.75,235.29 ' style='stroke-width: 1.07; stroke: #333333; stroke-linecap: butt;' clip-path='url(#cpMC4wMHwxMDgwLjAwfDUwNC4wMHwwLjAw)' />
<polyline points='456.01,213.46 458.75,213.46 ' style='stroke-width: 1.07; stroke: #333333; stroke-linecap: butt;' clip-path='url(#cpMC4wMHwxMDgwLjAwfDUwNC4wMHwwLjAw)' />
<polyline points='456.01,191.63 458.75,191.63 ' style='stroke-width: 1.07; stroke: #333333; stroke-linecap: butt;' clip-path='url(#cpMC4wMHwxMDgwLjAwfDUwNC4wMHwwLjAw)' />
<polyline points='456.01,169.80 458.75,169.80 ' style='stroke-width: 1.07; stroke: #333333; stroke-linecap: butt;' clip-path='url(#cpMC4wMHwxMDgwLjAwfDUwNC4wMHwwLjAw)' />
<polyline points='456.01,147.97 458.75,147.97 ' style='stroke-width: 1.07; stroke: #333333; stroke-linecap: butt;' clip-path='url(#cpMC4wMHwxMDgwLjAwfDUwNC4wMHwwLjAw)' />
<polyline points='456.01,126.15 458.75,126.15 ' style='stroke-width: 1.07; stroke: #333333; stroke-linecap: butt;' clip-path='url(#cpMC4wMHwxMDgwLjAwfDUwNC4wMHwwLjAw)' />
<polyline points='456.01,104.32 458.75,104.32 ' style='stroke-width: 1.07; stroke: #333333; stroke-linecap: butt;' clip-path='url(#cpMC4wMHwxMDgwLjAwfDUwNC4wMHwwLjAw)' />
<polyline points='456.01,82.49 458.75,82.49 ' style='stroke-width: 1.07; stroke: #333333; stroke-linecap: butt;' clip-path='url(#cpMC4wMHwxMDgwLjAwfDUwNC4wMHwwLjAw)' />
<polyline points='456.01,60.66 458.75,60.66 ' style='stroke-width: 1.07; stroke: #333333; stroke-linecap: butt;' clip-path='url(#cpMC4wMHwxMDgwLjAwfDUwNC4wMHwwLjAw)' />
<polyline points='456.01,38.83 458.75,38.83 ' style='stroke-width: 1.07; stroke: #333333; stroke-linecap: butt;' clip-path='url(#cpMC4wMHwxMDgwLjAwfDUwNC4wMHwwLjAw)' />
<polyline points='486.74,469.41 486.74,466.67 ' style='stroke-width: 1.07; stroke: #333333; stroke-linecap: butt;' clip-path='url(#cpMC4wMHwxMDgwLjAwfDUwNC4wMHwwLjAw)' />
<polyline points='670.88,469.41 670.88,466.67 ' style='stroke-width: 1.07; stroke: #333333; stroke-linecap: butt;' clip-path='url(#cpMC4wMHwxMDgwLjAwfDUwNC4wMHwwLjAw)' />
<polyline points='855.02,469.41 855.02,466.67 ' style='stroke-width: 1.07; stroke: #333333; stroke-linecap: butt;' clip-path='url(#cpMC4wMHwxMDgwLjAwfDUwNC4wMHwwLjAw)' />
<polyline points='1039.17,469.41 1039.17,466.67 ' style='stroke-width: 1.07; stroke: #333333; stroke-linecap: butt;' clip-path='url(#cpMC4wMHwxMDgwLjAwfDUwNC4wMHwwLjAw)' />
<g clip-path='url(#cpMC4wMHwxMDgwLjAwfDUwNC4wMHwwLjAw)'><text x='483.41' y='479.86' style='font-size: 12.00px; fill: #4D4D4D; font-family: Liberation Sans;' textLength='6.67px' lengthAdjust='spacingAndGlyphs'>0</text></g>
<g clip-path='url(#cpMC4wMHwxMDgwLjAwfDUwNC4wMHwwLjAw)'><text x='654.20' y='479.86' style='font-size: 12.00px; fill: #4D4D4D; font-family: Liberation Sans;' textLength='33.37px' lengthAdjust='spacingAndGlyphs'>10000</text></g>
<g clip-path='url(#cpMC4wMHwxMDgwLjAwfDUwNC4wMHwwLjAw)'><text x='838.34' y='479.86' style='font-size: 12.00px; fill: #4D4D4D; font-family: Liberation Sans;' textLength='33.37px' lengthAdjust='spacingAndGlyphs'>20000</text></g>
<g clip-path='url(#cpMC4wMHwxMDgwLjAwfDUwNC4wMHwwLjAw)'><text x='1022.48' y='479.86' style='font-size: 12.00px; fill: #4D4D4D; font-family: Liberation Sans;' textLength='33.37px' lengthAdjust='spacingAndGlyphs'>30000</text></g>
<g clip-path='url(#cpMC4wMHwxMDgwLjAwfDUwNC4wMHwwLjAw)'><text x='712.88' y='495.41' style='font-size: 15.00px; font-weight: bold; font-family: Liberation Sans;' textLength='107.50px' lengthAdjust='spacingAndGlyphs'>Number of Hits</text></g>
<g clip-path='url(#cpMC4wMHwxMDgwLjAwfDUwNC4wMHwwLjAw)'><text transform='translate(15.80,303.72) rotate(-90)' style='font-size: 15.00px; font-weight: bold; font-family: Liberation Sans;' textLength='115.03px' lengthAdjust='spacingAndGlyphs'>UniProt Species</text></g>
<g clip-path='url(#cpMC4wMHwxMDgwLjAwfDUwNC4wMHwwLjAw)'><text x='458.75' y='16.83' style='font-size: 16.50px; font-weight: bold; font-family: Liberation Sans;' textLength='213.62px' lengthAdjust='spacingAndGlyphs'>sponges_meta UniProt hits</text></g>
</svg>
