METRICS/TRANSCRIPTS                                    Cauris_20141022_RNASeq_50PE_clean.combined.okay  
 == GeneMarkS-T METRICS == 
Genes                                                  16229                                            

