SRR4255675_Tethya_wilhelma_transcriptome.combined.okay:
avg=838.968 
1581	9
883	9
377	93
909	11
807	21
380	104
1621	8
476	43
855	15
271	171
3144	3
2724	6
293	133
309	150
474	41
295	141
685	20
1387	11
422	73
1299	7
286	143
1958	6
311	164
980	18
461	66
2726	4
235	159
2121	7
516	30
582	34
806	11
2134	3
354	127
2587	7
230	177
972	12
254	183
663	20
486	36
2688	3
1660	9
479	48
2501	7
299	139
1204	13
973	12
681	23
731	21
4826	2
425	55
1342	8
351	123
355	129
364	110
367	116
4568	3
704	22
2791	3
320	146
277	146
734	17
362	99
248	176
347	143
2376	8
275	130
1782	10
239	180
1692	8
545	27
639	23
648	29
234	172
785	19
285	154
619	32
313	159
322	145
710	16
2106	7
1147	15
415	73
315	155
776	14
1116	11
2334	6
6072	1
371	100
895	8
861	15
2542	5
703	14
1479	10
445	59
814	14
245	149
1205	11
1191	13
257	192
1207	13
4140	3
406	73
2489	6
331	134
742	20
268	141
423	84
332	157
278	146
863	18
1212	11
1997	5
632	22
3260	1
1715	5
273	146
669	20
304	168
312	162
2338	3
6893	1
287	149
1034	16
2651	2
289	131
5356	2
510	32
297	114
633	26
5667	2
593	26
2138	2
270	140
584	27
2451	4
444	55
1463	8
626	21
363	122
1574	7
428	71
1115	10
326	130
256	163
2983	1
527	32
301	153
666	19
544	37
567	25
782	18
5425	3
1461	5
446	53
917	20
381	105
2592	3
3017	3
1289	9
343	135
255	169
2132	6
3303	1
509	31
887	19
631	25
700	22
602	25
340	138
3297	4
534	33
1101	12
296	122
328	156
946	14
1801	5
576	27
6298	2
9518	2
1532	11
344	119
2527	3
323	149
395	91
414	68
2965	2
7490	1
907	19
903	17
348	134
3900	2
357	125
1670	4
4465	2
2003	7
518	35
720	14
450	55
290	119
378	101
492	34
5421	1
6855	1
5122	1
2638	7
501	35
539	32
284	131
3521	1
2171	3
698	18
950	14
352	117
7728	1
1565	8
375	101
503	34
1243	12
359	120
1071	9
744	10
388	92
298	144
262	161
784	22
2283	4
571	24
872	21
649	28
1545	7
1580	5
2512	9
333	147
324	145
2026	6
1344	10
263	163
627	29
1370	9
524	28
1272	14
949	8
1729	10
1487	7
549	28
781	18
607	22
288	141
274	136
305	168
1539	8
801	24
1274	8
1411	12
629	23
1456	5
921	13
458	45
292	123
2084	9
318	134
438	57
430	71
835	7
2150	6
1304	6
442	55
526	26
974	15
338	164
341	132
280	162
439	62
462	54
514	36
489	43
392	89
2912	4
575	32
1671	10
824	19
454	50
1267	5
1704	7
3073	6
1134	12
316	164
1688	5
308	160
1172	13
766	10
1201	10
4291	3
412	92
411	68
635	20
1290	10
383	92
427	88
2341	5
1846	5
3015	4
3952	2
556	28
668	20
409	74
404	75
670	23
376	94
6017	1
390	107
880	13
2472	5
2856	5
335	126
1019	6
327	153
391	93
686	21
418	68
499	35
1033	9
818	11
470	44
5001	1
579	33
1727	7
400	95
447	67
1798	7
1429	10
1235	10
300	142
1294	11
609	29
466	47
3940	3
3857	2
948	11
3548	5
330	139
563	24
538	38
630	16
401	101
8134	1
706	23
1959	4
387	84
361	102
966	8
4373	2
1410	13
488	40
321	151
2304	3
1092	14
2798	5
506	38
1283	14
433	64
513	42
358	123
1395	6
1022	14
604	27
402	90
1015	9
708	19
1559	10
657	19
1183	12
3648	2
1577	13
727	14
1187	7
4516	2
419	70
573	36
1027	13
2137	8
1444	8
1177	8
389	115
2211	5
3179	3
2914	5
7090	1
713	29
5406	1
403	75
386	102
431	57
986	17
988	15
2208	7
2979	3
345	145
915	11
1810	8
408	75
432	69
484	26
2461	6
393	76
3626	5
2013	10
4364	3
1464	7
490	39
1316	7
495	45
1042	14
701	26
1944	3
811	17
800	20
416	64
2030	6
339	166
394	82
1669	10
969	15
2517	2
396	90
676	21
795	19
3982	2
4067	2
5811	2
899	10
865	12
813	11
595	30
2641	4
1109	11
1401	14
1064	10
2410	4
365	114
561	22
675	28
1085	14
1046	8
1501	11
640	30
810	19
517	37
981	13
1572	8
799	12
1107	12
453	42
370	106
437	55
2654	5
7594	1
6479	1
1031	18
504	30
550	30
449	48
656	31
1447	4
491	24
636	25
8327	1
424	79
1990	9
496	36
2357	3
435	70
8887	1
1779	5
441	64
1960	6
3048	3
5858	1
1379	15
930	17
421	72
417	59
1044	10
1029	8
702	20
566	27
6603	1
1712	5
931	8
1073	14
2774	2
1217	12
4648	4
637	22
1891	9
1322	13
2375	4
521	38
1371	5
485	53
1218	8
1547	8
498	42
493	34
690	19
1443	5
692	23
547	33
770	14
468	45
1090	15
572	31
1941	8
1006	13
543	34
1760	7
833	21
4588	1
1834	8
2001	3
4725	1
2386	3
615	26
553	31
904	13
995	14
2010	7
1800	6
983	14
998	16
802	15
4402	3
4969	1
519	38
939	19
2521	2
1728	3
673	26
530	35
2039	6
816	18
540	32
2412	6
531	24
1216	9
515	30
2655	6
1499	9
1382	13
1174	13
929	17
1854	4
3123	1
4181	2
3321	2
2603	4
879	13
577	30
4429	2
616	25
558	36
625	21
871	15
2767	2
2406	3
1070	11
1757	9
2156	3
614	26
613	28
672	15
3099	3
1813	7
620	24
1058	12
3754	5
1176	6
715	18
617	22
823	17
837	15
798	13
4773	1
834	14
3496	2
2761	2
2109	11
3659	1
3884	6
6701	1
1582	8
984	11
4551	2
2823	5
1566	7
755	18
1113	9
746	16
955	13
2095	9
1780	5
1025	13
860	13
1301	7
4343	2
4043	1
1250	10
1558	14
1823	3
1378	9
805	18
2769	4
9066	1
2165	8
1004	17
1166	12
2986	2
1906	3
1909	7
1930	6
926	15
1398	9
994	15
2449	2
1122	9
1880	1
3376	2
1169	6
4031	3
1287	6
2172	4
1423	7
3893	2
2620	1
4151	3
2738	3
5395	1
2175	3
2358	3
5481	1
2614	10
1442	8
1399	6
2253	4
2543	4
1282	4
3412	2
4515	2
1644	7
2875	4
1791	11
2646	6
3605	3
1889	6
2188	8
1596	3
5409	4
1485	6
1752	9
4007	3
4970	2
3503	7
2454	6
2393	5
2082	3
5649	3
4251	2
2397	4
3051	6
3516	3
2356	6
2586	2
4902	1
2302	6
3139	2
3080	3
3581	1
2759	4
3014	2
2745	5
2988	2
2998	2
3665	4
10055	1
4427	2
9247	3
9040	1
5299	1
8534	2
7279	1
9860	1
10679	1
7877	1
100	27
101	20
102	19
103	19
104	23
105	23
106	30
107	27
108	26
109	34
110	34
111	42
112	56
113	109
114	56
115	59
116	61
117	65
118	63
119	55
120	69
121	71
122	99
123	85
124	100
125	251
126	73
127	96
128	98
129	92
130	94
131	86
132	97
133	128
134	114
135	112
136	84
137	98
138	101
139	136
140	137
141	138
142	119
143	127
144	133
145	132
146	145
147	121
148	151
149	122
150	132
151	129
152	140
153	139
154	149
155	145
156	159
157	151
158	168
159	163
160	157
161	140
162	159
163	193
164	163
165	176
166	176
167	200
168	188
169	201
170	240
171	249
172	238
173	245
174	272
175	279
176	242
177	239
178	252
179	245
180	281
181	258
182	257
183	263
184	259
185	281
186	285
187	279
188	312
189	289
190	319
191	309
192	293
193	278
194	266
195	279
196	272
197	254
198	264
199	258
200	267
201	263
202	313
203	327
204	293
205	285
206	315
207	330
208	331
209	275
210	269
211	294
212	263
213	240
214	258
215	282
216	250
217	268
218	269
219	270
220	248
221	264
222	278
223	256
224	253
225	265
226	188
227	190
228	193
229	187
231	203
232	181
233	211
236	175
237	165
238	203
240	185
241	189
242	170
243	173
244	177
246	178
247	178
249	183
250	167
251	162
252	160
253	194
258	182
259	153
260	182
261	141
264	156
265	144
266	149
267	157
269	143
272	148
276	146
279	156
281	107
282	140
283	168
291	119
294	149
302	174
303	170
306	155
307	155
310	163
314	153
317	148
319	172
325	153
329	126
334	161
336	136
337	147
342	129
346	149
349	123
350	123
353	126
356	143
360	117
366	117
368	98
369	116
372	101
373	115
374	99
379	100
382	95
384	96
385	102
397	101
398	88
399	83
405	88
407	90
410	80
413	74
420	65
426	69
429	59
434	50
436	59
440	63
443	59
448	61
451	52
452	61
455	57
456	48
457	43
459	49
460	55
463	43
464	35
465	40
467	47
469	48
471	32
472	35
475	43
477	40
478	31
480	51
481	36
482	38
487	33
494	37
497	33
502	29
505	35
508	37
520	30
523	29
528	39
529	31
533	40
535	28
537	35
541	37
546	29
551	30
552	34
554	35
559	34
560	27
569	33
570	27
574	20
578	24
580	28
583	27
585	31
586	24
587	24
589	22
590	20
591	30
594	31
596	19
597	26
598	25
600	19
603	21
605	23
606	19
608	27
610	28
622	21
634	42
642	24
644	27
645	9
646	16
647	16
651	22
652	22
653	18
660	26
662	18
674	22
678	23
679	17
680	16
689	21
691	18
694	21
695	21
705	15
707	16
709	22
711	20
714	22
718	18
719	21
721	23
722	15
724	17
728	14
730	12
732	19
735	24
736	12
738	18
739	19
741	16
745	18
748	16
752	19
753	16
756	14
757	13
759	18
761	17
762	10
763	17
767	16
768	13
772	19
773	16
775	14
777	16
778	16
779	14
780	8
783	20
788	17
789	18
791	16
792	15
812	14
822	12
825	16
827	14
830	15
832	10
839	18
840	15
842	16
843	15
846	12
849	13
850	13
852	16
856	14
858	21
859	17
862	14
866	12
870	19
873	11
875	14
876	13
877	14
882	16
890	11
891	15
892	11
896	11
897	17
900	10
902	17
905	11
908	11
910	14
911	9
912	13
914	11
916	7
922	15
927	11
932	10
933	11
936	22
938	19
944	20
957	8
967	15
975	15
982	15
985	11
989	10
991	13
993	13
997	16
1000	6
1001	13
1003	10
1009	15
1011	7
1014	11
1017	16
1021	12
1024	9
1026	11
1030	10
1039	11
1040	12
1048	13
1049	12
1050	8
1052	6
1054	8
1057	10
1059	12
1061	10
1077	14
1082	9
1083	9
1087	15
1094	14
1103	17
1106	13
1108	10
1110	7
1121	10
1123	8
1126	6
1129	9
1133	11
1137	9
1141	11
1142	9
1144	7
1145	9
1146	10
1148	8
1149	13
1155	9
1157	13
1162	7
1163	8
1184	10
1188	10
1190	7
1193	10
1194	7
1195	10
1196	10
1197	5
1199	9
1202	10
1210	11
1215	6
1220	12
1222	11
1223	5
1226	8
1227	6
1229	6
1230	13
1232	9
1236	6
1237	8
1244	10
1245	9
1246	9
1248	8
1251	8
1252	10
1256	15
1258	13
1262	8
1266	10
1268	9
1276	5
1277	4
1278	10
1280	9
1285	11
1292	5
1296	15
1300	6
1302	4
1305	11
1307	9
1311	14
1313	12
1321	12
1325	7
1327	6
1330	8
1332	12
1333	7
1336	10
1346	13
1353	11
1363	7
1365	8
1368	4
1369	10
1374	5
1384	8
1388	8
1389	8
1390	6
1392	9
1404	9
1409	7
1413	5
1416	8
1421	2
1424	8
1425	6
1435	11
1439	8
1441	4
1445	5
1449	6
1450	6
1451	7
1453	11
1454	7
1457	6
1458	3
1459	9
1465	6
1469	5
1473	7
1475	10
1480	7
1481	13
1483	7
1484	8
1495	10
1509	6
1516	10
1517	10
1518	9
1526	5
1527	10
1528	10
1535	4
1536	9
1537	3
1542	8
1546	10
1549	9
1551	6
1555	9
1557	10
1560	10
1561	7
1562	3
1564	8
1567	6
1586	7
1588	6
1593	6
1603	5
1604	10
1614	11
1618	8
1624	2
1625	6
1629	5
1630	4
1634	8
1645	9
1650	9
1655	7
1656	9
1658	7
1662	4
1663	8
1667	6
1668	9
1673	8
1674	5
1676	9
1705	7
1722	11
1734	10
1738	10
1743	8
1762	7
1770	5
1771	7
1772	7
1778	4
1783	8
1796	5
1802	9
1812	10
1815	5
1816	5
1842	7
1852	3
1855	11
1859	5
1874	6
1886	5
1888	9
1896	9
1923	9
1933	6
1937	9
1938	1
1940	2
1942	6
1947	3
1951	6
1956	5
1957	4
1961	8
1964	7
1966	4
1967	3
1976	6
2014	7
2017	7
2021	6
2027	6
2034	7
2045	4
2046	4
2047	6
2049	3
2054	6
2057	5
2065	9
2067	4
2069	6
2088	5
2089	3
2096	7
2097	4
2103	4
2108	5
2111	3
2116	3
2120	6
2125	3
2139	5
2140	8
2151	7
2152	6
2170	4
2177	5
2178	4
2179	6
2187	9
2194	6
2195	5
2207	5
2214	11
2217	11
2224	5
2242	6
2250	4
2258	7
2259	4
2264	6
2265	4
2267	4
2268	4
2277	3
2282	3
2294	2
2307	6
2311	6
2313	3
2314	6
2326	6
2327	5
2339	3
2345	4
2350	6
2353	6
2363	2
2369	8
2371	7
2379	5
2380	8
2396	5
2402	8
2432	3
2439	5
2450	4
2457	2
2463	2
2477	3
2480	2
2485	6
2493	2
2505	3
2511	4
2519	5
2534	5
2537	3
2548	8
2553	7
2555	8
2563	4
2566	5
2567	2
2574	2
2575	2
2577	5
2580	4
2583	4
2585	3
2588	2
2591	4
2593	6
2600	5
2612	6
2621	7
2628	3
2630	3
2648	5
2650	2
2674	3
2684	3
2685	6
2719	3
2729	2
2730	4
2731	1
2739	7
2754	5
2755	4
2760	3
2768	5
2770	10
2789	5
2800	6
2801	4
2806	4
2809	3
2812	7
2826	4
2827	2
2833	5
2839	6
2850	5
2887	2
2892	6
2905	1
2921	6
2925	4
2926	3
2934	2
2935	8
2936	5
2964	2
2992	2
3003	4
3006	4
3012	3
3024	2
3046	5
3049	3
3082	2
3120	6
3143	2
3148	5
3159	1
3171	3
3175	2
3212	5
3213	3
3222	4
3223	2
3237	4
3276	2
3294	3
3306	3
3307	6
3336	4
3361	2
3372	4
3382	3
3437	3
3445	8
3455	4
3519	1
3561	4
3594	2
3596	3
3598	3
3602	6
3609	2
3666	3
3677	2
3678	6
3688	2
3800	3
3941	1
3973	3
4010	2
4075	3
4110	4
4132	2
4156	3
4159	4
4179	1
4206	2
4214	2
4254	2
4261	1
4273	2
4295	3
4362	4
4408	1
4434	4
4532	2
4533	1
4579	1
4601	2
4613	2
4649	1
4668	1
4850	1
5092	3
5180	2
5186	3
5257	3
5259	2
5310	2
5385	1
5472	1
5562	1
5708	1
5790	2
5821	1
5843	3
6061	1
6063	1
6121	1
6399	3
6504	1
6572	1
6661	1
7333	1
7361	2
7463	1
7574	1
7794	1
8021	1
8075	1
8301	2
8845	1
9116	1
11006	1
11277	1
18814	1
3422	2
2528	4
2348	3
548	19
952	17
4208	4
1270	5
2122	5
1068	9
2466	5
1386	11
3170	3
2176	4
1914	9
4349	1
1102	13
665	24
2290	5
1556	5
2146	8
1633	6
4259	5
3155	5
1900	4
881	15
747	26
1642	7
6238	1
2720	7
1983	9
638	21
3713	2
1143	11
682	14
4577	3
3076	3
1918	4
6033	1
3474	1
1247	10
1041	6
2271	5
2514	7
2163	6
954	20
1007	8
1434	4
4267	3
1412	10
1062	15
804	15
1686	5
1806	3
2662	8
978	10
1002	15
1910	6
2426	5
2245	6
1862	8
4137	4
1335	14
1356	6
612	30
1114	10
1569	8
2847	4
928	11
5062	2
864	10
848	13
2081	4
3211	3
1308	10
1587	11
5804	2
601	25
2807	6
683	14
2919	2
699	24
2879	6
3917	5
1018	13
1255	7
913	10
1362	8
588	28
3153	6
2318	2
857	11
1171	12
2437	4
1096	11
1306	4
1803	7
688	19
1767	9
3225	3
9368	1
790	14
4528	1
1541	11
1351	5
557	28
1180	9
3305	2
2223	6
3972	5
918	16
1104	11
889	16
2787	3
618	20
2383	5
1005	10
906	17
3141	2
3606	3
562	35
1477	8
1165	15
3401	6
2863	2
1186	8
962	9
771	21
2816	6
3812	2
1125	15
654	17
667	16
1298	11
1902	4
1807	6
1776	8
1843	7
9233	1
1865	6
4005	1
1284	6
749	18
581	26
717	16
500	38
532	26
841	15
555	23
1132	12
658	22
611	20
1091	7
878	12
696	19
2192	5
1583	10
3699	3
1508	6
664	14
796	15
797	8
1153	8
2494	6
3860	2
1730	7
6078	1
661	21
820	18
935	5
525	33
4079	1
999	15
971	16
1755	5
2486	5
473	43
1876	7
1341	7
512	33
641	15
990	7
655	17
4173	5
3318	2
743	13
1343	11
3050	4
1185	13
2043	5
592	29
2078	4
6612	1
3588	2
1020	12
2105	7
1683	7
5080	2
1504	11
1060	18
2167	10
920	11
1080	12
1622	12
1777	5
2678	5
884	10
3847	2
3838	1
5012	2
845	10
1746	9
934	7
1254	13
1651	7
2315	7
1324	10
4950	1
2241	6
3829	5
11775	1
15128	1
1861	4
1354	6
2285	7
2550	3
2173	5
6321	1
3052	3
2782	2
9747	1
507	29
536	37
542	31
564	27
565	21
599	21
623	19
643	20
650	27
659	16
697	16
754	13
758	21
764	16
765	14
769	9
774	20
817	12
819	16
826	8
836	12
853	9
854	14
874	16
894	10
919	14
937	10
941	13
943	9
947	9
953	11
965	13
968	12
1012	8
1013	9
1035	10
1043	11
1047	12
1051	10
1053	16
1056	7
1078	13
1086	14
1105	11
1117	6
1130	11
1159	12
1161	6
1170	6
1181	15
1182	7
1189	10
1198	6
1214	9
1225	9
1228	8
1234	10
1239	10
1253	11
1264	15
1293	8
1303	6
1317	17
1338	17
1345	9
1358	14
1372	6
1376	6
1419	9
1426	8
1437	8
1468	8
1494	10
1496	13
1515	6
1522	4
1540	5
1552	14
1554	12
1585	8
1591	5
1592	11
1602	8
1619	5
1627	6
1689	7
1700	8
1701	3
1702	16
1710	7
1717	5
1724	9
1747	10
1750	4
1753	3
1761	9
1784	7
1818	8
1830	6
1850	6
1864	5
1867	6
1873	4
1893	10
1908	4
1917	7
1934	4
1950	6
1952	6
1977	9
1985	5
1986	2
1992	8
2002	4
2020	5
2042	6
2044	6
2068	6
2071	10
2086	9
2098	5
2107	6
2112	6
2157	6
2169	3
2181	1
2186	5
2255	5
2273	6
2295	4
2297	5
2300	7
2309	4
2317	4
2340	6
2342	3
2344	2
2428	7
2441	5
2443	5
2455	7
2468	5
2502	3
2535	4
2538	5
2544	3
2547	6
2557	2
2568	4
2623	6
2633	5
2652	7
2828	7
2842	5
2843	3
2928	6
2969	5
2978	6
3004	5
3011	6
3083	6
3086	2
3105	3
3150	4
3163	2
3248	1
3362	1
3365	4
3403	3
3465	4
3467	4
3531	2
3545	2
3601	1
3728	1
3822	3
3825	4
3843	2
3882	2
3932	1
3989	4
4046	4
4054	1
4063	1
4220	2
4306	3
4352	2
4422	5
4450	2
4705	1
4765	1
4887	1
5096	2
5410	1
5740	3
6234	1
6473	1
6686	1
6758	1
10442	1
14839	1
2234	2
1638	7
4248	1
3504	2
2927	5
1675	7
5566	1
1348	6
1590	7
3152	3
1733	9
888	10
5533	1
1257	7
2272	4
1726	7
1466	7
1128	13
844	12
1756	9
2299	9
1016	9
2516	2
1010	12
1279	5
2131	2
1513	7
3861	2
1208	13
3760	5
1601	9
3060	6
4038	3
3637	2
4813	1
1213	9
1968	5
4047	4
2052	5
1524	7
1649	5
1380	8
1100	11
1857	7
3384	3
5312	1
1093	15
4334	3
3109	5
3680	3
2728	4
963	13
2278	4
6474	4
1895	6
2229	8
1786	8
951	8
1032	7
10904	1
2504	7
2056	2
4476	2
3743	3
483	41
1809	6
4446	3
960	8
1659	11
3350	3
1154	9
4413	3
1436	9
2354	2
898	13
1553	9
1925	6
5485	2
3635	1
794	15
3492	6
1119	13
821	9
809	18
1609	12
2985	3
1160	13
1340	9
684	20
1406	12
511	32
1825	5
1707	6
1350	7
2110	4
1872	6
1326	9
2058	4
2766	6
733	13
1514	5
760	13
2381	10
750	13
1069	15
1653	8
1175	11
4644	1
901	14
716	18
1563	11
1636	11
6307	2
1488	8
831	6
1089	10
1678	4
1665	5
3443	5
3265	3
1309	9
1493	4
3645	4
3218	3
1814	5
6423	1
5351	2
8941	1
621	18
671	16
677	20
726	21
737	18
787	14
815	12
867	15
868	20
987	10
1055	15
1112	13
1118	12
1135	10
1136	10
1140	15
1151	8
1164	10
1178	6
1231	13
1240	9
1249	6
1310	10
1319	15
1329	11
1355	10
1357	10
1359	10
1361	7
1375	10
1377	10
1396	7
1397	11
1407	5
1428	8
1431	11
1460	8
1471	5
1474	10
1476	8
1502	9
1503	10
1525	5
1543	5
1548	4
1573	5
1584	3
1595	5
1605	4
1643	12
1654	3
1684	9
1696	7
1708	9
1819	9
1844	6
1882	4
1905	5
1922	2
1929	5
1953	5
1955	4
1989	5
2000	6
2005	5
2006	3
2018	7
2100	6
2104	6
2154	3
2237	5
2244	7
2256	5
2399	9
2414	6
2445	5
2459	4
2498	4
2564	2
2610	4
2658	4
2666	5
2711	2
2713	2
2740	3
2750	5
2788	5
3038	1
3070	1
3072	2
3176	1
3279	3
3368	4
3391	1
3393	4
3414	2
3433	4
3478	2
3514	5
3542	2
3615	3
3627	2
3644	3
3686	2
3742	3
3835	2
3844	2
3986	4
4171	2
4269	1
4406	2
4421	1
4454	3
4830	2
5126	4
5380	1
5386	1
5518	2
5719	1
6320	1
6854	1
7556	1
9542	1
10053	1
1594	9
693	16
1492	6
1263	7
786	9
1334	6
4823	2
2248	1
4106	3
3000	4
3951	1
1635	6
740	10
1347	7
1690	6
940	10
942	11
1544	6
925	8
1839	3
4734	1
1224	11
3510	2
1367	9
1417	9
1687	8
4611	2
1219	7
5161	3
2099	9
1531	6
1885	10
1337	8
1505	6
2298	4
1589	9
869	17
958	6
1822	2
6266	1
1067	7
808	14
1904	3
1037	11
1741	4
1773	5
2287	3
1869	10
1988	6
1420	10
2164	3
1491	7
2009	6
522	27
3570	2
1312	9
1097	12
1432	8
886	15
4562	2
2881	3
3576	2
4154	3
1639	9
2074	8
4270	2
4335	2
6012	1
568	20
624	16
628	15
729	17
793	10
803	12
838	8
956	8
970	10
977	11
979	8
1008	15
1023	7
1045	8
1066	11
1074	7
1081	6
1098	8
1150	11
1179	8
1200	8
1238	12
1286	6
1314	9
1315	8
1403	9
1405	9
1415	12
1422	3
1446	9
1500	9
1519	4
1550	7
1570	11
1597	6
1637	6
1682	6
1745	6
1781	6
1824	8
1858	4
1866	5
1870	5
1892	8
1969	7
1979	7
1993	8
1996	11
1999	9
2015	5
2033	5
2060	6
2128	7
2142	6
2193	5
2228	4
2239	2
2254	3
2296	5
2323	4
2324	2
2325	3
2364	4
2422	3
2438	4
2446	4
2490	6
2496	4
2601	4
2675	2
2709	3
2723	3
2749	3
2756	1
2811	1
2864	6
2894	3
2904	3
3256	2
3273	1
3448	1
3543	3
4011	3
4037	1
4224	4
4455	2
4673	3
4715	1
4752	2
4959	1
5054	2
5075	2
5081	1
5273	1
5900	1
7202	1
7245	1
8041	1
8988	1
9587	1
16889	1
16799	1
15366	1
13753	1
13624	1
13285	1
12787	1
12753	1
12716	1
12542	1
12068	1
11746	1
11363	1
11310	1
11302	1
11282	1
10735	2
10712	1
10650	1
10335	1
10216	1
10106	1
10050	1
9977	2
9909	1
9830	1
9752	1
9588	1
9512	1
9472	1
9443	1
9435	1
9414	1
9410	1
9297	1
9272	1
9192	1
9130	1
9109	1
9082	1
9021	1
9000	1
8982	2
8971	1
8970	1
8959	1
8896	1
8792	1
8744	1
8720	1
8624	1
8546	1
8541	1
8506	1
8497	1
8443	1
8375	1
8362	1
8305	1
8245	1
8239	1
8177	1
8161	1
8151	1
8125	1
8124	1
8036	1
8017	1
8015	1
7860	1
7853	1
7844	1
7792	1
7772	1
7715	1
7708	1
7676	1
7667	1
7644	1
7632	1
7616	2
7615	1
7517	1
7500	1
7339	2
7335	1
7239	1
7223	1
7196	1
7153	2
7131	1
7069	1
7056	1
7042	2
7021	1
7004	1
6983	1
6863	1
6852	2
6835	1
6804	2
6783	1
6765	1
6735	1
6696	2
6687	1
6626	1
6590	1
6581	2
6566	1
6517	2
6484	1
6476	1
6458	1
6424	1
6373	3
6344	1
6339	1
6338	1
6331	1
6325	2
6310	1
6289	2
6265	1
6264	1
6261	1
6258	1
6256	1
6231	3
6212	1
6206	2
6198	1
6180	1
6176	1
6174	1
6172	1
6159	1
6156	1
6125	1
6112	1
6108	3
6101	1
6094	3
6093	2
6092	1
6091	1
6057	1
6056	1
6049	1
6007	1
6005	1
6000	2
5987	1
5974	1
5944	1
5941	1
5935	1
5930	2
5926	2
5918	1
5909	1
5888	1
5881	1
5876	1
5844	3
5842	1
5838	1
5834	1
5830	2
5819	1
5818	1
5789	2
5788	1
5783	1
5777	1
5771	2
5763	1
5759	3
5746	1
5744	1
5732	2
5728	1
5724	1
5720	1
5703	1
5701	1
5695	1
5689	1
5682	1
5677	1
5675	1
5665	3
5663	2
5659	3
5658	1
5654	3
5648	1
5638	1
5621	2
5614	2
5598	1
5574	1
5568	1
5563	1
5554	2
5532	1
5530	2
5525	2
5520	1
5501	2
5493	1
5492	2
5491	1
5482	1
5474	1
5445	2
5439	1
5432	3
5428	2
5427	3
5412	1
5401	1
5400	1
5394	1
5393	1
5392	1
5391	1
5368	2
5367	2
5362	2
5348	2
5340	1
5339	1
5321	1
5303	2
5294	2
5293	1
5256	3
5254	1
5241	1
5240	1
5225	1
5216	1
5203	1
5194	2
5166	1
5155	2
5154	3
5143	2
5137	2
5124	1
5072	2
5069	1
5055	2
5044	1
5035	4
5033	2
5031	1
5018	1
5011	1
4997	1
4987	2
4983	3
4981	3
4957	2
4956	1
4952	2
4951	1
4920	2
4917	2
4915	2
4908	1
4907	2
4896	1
4888	2
4866	3
4861	2
4860	1
4851	2
4836	1
4835	1
4832	2
4831	3
4822	1
4814	1
4809	1
4791	1
4789	1
4788	1
4761	2
4750	1
4738	2
4730	4
4721	1
4706	3
4698	1
4685	2
4682	1
4680	1
4674	1
4665	2
4652	2
4647	2
4642	3
4639	3
4638	1
4634	2
4631	3
4626	2
4621	3
4614	4
4609	1
4602	3
4598	3
4595	1
4594	2
4578	1
4575	1
4560	2
4557	1
4540	1
4536	1
4534	2
4524	3
4509	2
4506	3
4503	2
4497	2
4496	1
4493	1
4488	3
4478	2
4471	2
4459	1
4453	1
4448	5
4441	2
4438	4
4435	3
4428	2
4419	3
4407	1
4404	1
4398	1
4396	3
4395	1
4391	1
4387	1
4386	1
4385	2
4378	2
4371	2
4370	2
4368	2
4365	3
4359	1
4357	1
4348	2
4326	4
4325	1
4321	1
4319	1
4317	1
4314	2
4311	2
4307	2
4304	1
4292	1
4290	2
4289	3
4283	3
4274	3
4271	3
4266	2
4264	2
4257	3
4250	1
4246	1
4239	1
4229	2
4228	4
4227	5
4223	2
4222	2
4218	1
4217	4
4213	3
4196	1
4195	2
4193	1
4190	2
4189	2
4187	2
4177	2
4174	2
4168	2
4160	1
4158	3
4153	4
4143	3
4131	2
4130	4
4129	5
4124	2
4115	4
4113	3
4112	2
4105	2
4091	4
4087	2
4085	5
4084	1
4078	3
4076	1
4073	2
4072	2
4065	2
4044	3
4040	2
4034	1
4027	3
4021	2
4020	3
4019	2
4018	1
4017	3
4009	2
4003	2
3998	1
3995	1
3974	3
3971	3
3968	1
3962	1
3959	2
3954	2
3949	3
3947	5
3944	4
3934	1
3930	3
3928	2
3925	1
3912	2
3911	3
3908	2
3905	2
3902	4
3891	4
3889	2
3877	3
3868	2
3855	3
3845	2
3840	3
3837	3
3836	4
3828	5
3817	2
3811	2
3807	3
3804	8
3801	2
3794	3
3793	5
3787	1
3786	1
3778	1
3777	2
3772	4
3771	2
3769	2
3768	1
3767	1
3765	4
3759	5
3755	3
3749	1
3744	4
3736	5
3733	1
3724	3
3719	1
3715	3
3714	3
3706	3
3704	1
3700	1
3695	2
3684	1
3672	2
3671	5
3670	3
3667	4
3662	5
3658	1
3656	3
3642	2
3641	2
3640	1
3624	1
3619	3
3614	3
3608	3
3593	1
3592	2
3590	2
3589	2
3586	4
3574	2
3573	3
3571	2
3560	3
3558	2
3557	5
3547	3
3539	2
3525	2
3523	1
3507	3
3501	3
3497	2
3494	3
3489	2
3488	2
3487	2
3475	1
3468	5
3456	4
3451	1
3450	3
3449	2
3447	4
3446	3
3441	2
3439	3
3436	3
3434	3
3432	3
3430	3
3429	1
3428	3
3427	3
3424	4
3423	3
3419	3
3418	5
3417	3
3411	3
3408	1
3407	1
3404	1
3399	1
3394	2
3392	1
3390	3
3389	2
3366	7
3364	2
3363	4
3358	2
3352	4
3351	3
3346	3
3343	7
3342	2
3337	2
3330	5
3328	3
3326	3
3325	3
3314	4
3313	2
3301	2
3295	3
3293	4
3292	3
3291	2
3282	4
3278	2
3270	3
3264	1
3263	5
3262	2
3257	5
3254	4
3253	2
3249	3
3246	2
3245	3
3240	5
3239	3
3238	2
3231	2
3219	2
3217	1
3210	4
3209	6
3203	4
3200	6
3199	3
3198	1
3197	3
3195	3
3193	8
3187	2
3186	2
3178	3
3172	3
3167	2
3165	5
3164	3
3162	3
3161	5
3160	2
3158	2
3154	3
3149	2
3138	3
3135	2
3131	8
3128	1
3126	3
3124	3
3117	2
3116	3
3112	2
3110	4
3097	3
3093	3
3092	5
3088	2
3084	1
3077	2
3071	3
3069	4
3066	1
3064	4
3061	1
3059	2
3058	4
3056	2
3053	4
3047	3
3045	4
3044	1
3042	2
3033	1
3030	5
3028	3
3026	5
3023	4
3019	2
3008	4
3005	2
2997	4
2996	1
2994	3
2991	5
2990	4
2987	5
2981	2
2974	3
2971	4
2970	5
2968	3
2966	2
2962	1
2957	6
2953	1
2952	5
2950	3
2944	4
2941	5
2940	3
2939	2
2933	2
2932	5
2931	4
2930	2
2929	7
2924	3
2923	4
2922	4
2917	3
2911	7
2910	3
2898	2
2897	1
2893	2
2891	2
2884	4
2880	2
2878	1
2877	2
2869	7
2868	1
2867	5
2866	2
2861	2
2852	3
2851	7
2846	2
2830	5
2829	4
2824	4
2822	2
2821	4
2818	3
2815	5
2803	5
2795	2
2794	9
2792	7
2786	4
2753	3
2751	1
2747	3
2744	4
2743	4
2736	3
2734	2
2733	1
2732	3
2727	5
2721	3
2718	2
2717	2
2714	2
2710	6
2708	3
2704	2
2701	5
2700	3
2698	4
2697	1
2696	3
2690	4
2687	2
2677	6
2673	5
2672	4
2670	4
2667	7
2659	2
2639	6
2632	5
2619	3
2618	2
2611	5
2609	1
2608	3
2605	5
2602	3
2599	3
2598	7
2596	7
2594	5
2590	4
2582	1
2581	5
2569	5
2561	5
2560	6
2559	5
2558	4
2556	3
2554	2
2551	4
2549	5
2545	2
2541	2
2540	7
2539	2
2536	2
2530	2
2526	4
2525	5
2515	3
2513	8
2510	1
2508	2
2507	2
2503	3
2497	4
2495	5
2491	5
2488	3
2479	5
2478	7
2475	4
2474	6
2469	5
2465	6
2464	1
2462	3
2460	3
2456	3
2453	5
2447	6
2444	2
2442	5
2436	3
2435	3
2433	4
2430	7
2425	5
2418	6
2417	1
2415	6
2411	4
2408	3
2405	4
2404	7
2403	7
2389	1
2388	3
2384	3
2382	4
2373	3
2370	5
2366	2
2365	4
2362	4
2360	6
2359	5
2355	3
2349	3
2346	3
2343	5
2336	7
2335	5
2333	5
2329	3
2328	4
2322	5
2321	3
2312	8
2310	8
2308	4
2306	6
2305	3
2303	2
2292	8
2291	5
2286	4
2284	8
2275	3
2270	3
2269	7
2266	7
2262	3
2252	4
2251	4
2246	6
2243	2
2240	3
2238	6
2235	3
2226	3
2212	3
2210	6
2206	4
2199	5
2197	5
2185	4
2183	7
2168	5
2162	2
2161	3
2153	5
2149	7
2148	4
2143	3
2135	6
2133	5
2129	4
2127	8
2126	3
2119	5
2118	4
2117	4
2115	4
2114	3
2113	8
2102	3
2094	4
2090	7
2085	5
2083	2
2080	4
2079	9
2077	4
2076	5
2073	3
2070	4
2066	8
2062	5
2061	8
2059	5
2050	3
2048	1
2038	5
2036	6
2035	5
2032	5
2025	6
2023	3
2022	5
2019	9
2012	5
2011	3
2008	5
2007	8
1998	3
1987	4
1984	5
1981	13
1978	3
1975	4
1973	6
1971	4
1963	5
1949	8
1948	9
1946	9
1945	5
1939	6
1936	4
1935	4
1931	6
1927	2
1926	6
1924	7
1920	5
1913	6
1912	5
1911	3
1907	3
1903	6
1901	8
1898	6
1897	2
1894	7
1890	6
1887	6
1883	3
1881	6
1878	5
1875	7
1868	5
1860	3
1853	6
1851	4
1849	9
1848	5
1847	4
1845	2
1837	7
1836	7
1835	4
1833	4
1832	2
1831	6
1828	6
1826	9
1821	8
1820	7
1817	6
1811	5
1808	9
1805	7
1804	1
1799	2
1794	7
1793	9
1792	11
1790	7
1789	7
1787	5
1775	3
1774	8
1768	9
1765	9
1764	6
1763	5
1759	8
1754	5
1751	5
1748	7
1744	13
1740	5
1736	7
1735	8
1732	6
1731	7
1723	4
1721	7
1720	4
1718	3
1714	5
1713	3
1711	4
1709	4
1706	8
1699	8
1694	3
1685	4
1679	3
1677	8
1672	10
1664	7
1652	5
1646	7
1641	6
1632	6
1628	1
1626	8
1623	6
1617	6
1616	5
1615	7
1613	3
1612	4
1611	5
1606	7
1600	5
1599	5
1598	2
1579	8
1578	4
1576	4
1575	5
1571	4
1568	6
1538	11
1534	5
1533	5
1530	10
1523	8
1521	10
1520	7
1511	7
1510	7
1506	6
1498	9
1497	6
1482	6
1478	7
1470	7
1467	8
1462	10
1448	10
1440	5
1438	6
1433	9
1427	13
1418	6
1414	9
1408	5
1402	7
1393	6
1391	8
1385	6
1383	5
1381	3
1373	4
1360	4
1352	8
1349	7
1339	7
1328	7
1320	8
1318	7
1295	6
1291	10
1288	6
1281	9
1275	8
1273	10
1271	8
1269	11
1265	9
1261	9
1260	9
1259	9
1242	8
1233	9
1221	10
1211	7
1206	6
1203	7
1168	5
1158	10
1152	3
1139	9
1138	5
1127	11
1124	8
1099	13
1088	10
1076	7
1075	12
1065	6
1063	7
1038	6
1036	9
1028	6
996	10
992	11
976	9
964	11
961	12
959	10
945	7
924	7
923	12
893	8
885	10
851	7
847	15
829	9
828	10
751	10
725	13
723	14
712	9
687	17
17673	1
14672	1
14379	1
14292	1
13481	1
13448	1
11671	1
11488	1
11229	1
11132	1
11054	1
10903	1
10759	1
10731	1
10718	1
10633	1
10450	1
10286	1
10248	1
9964	1
9864	1
9738	1
9287	1
9225	1
9084	1
9054	1
8873	1
8810	1
8702	1
8666	1
8542	1
8453	1
8426	1
8322	1
8261	1
8024	1
8007	1
7808	1
7785	1
7768	2
7717	1
7648	1
7641	1
7485	1
7434	1
7401	1
7360	1
7304	1
7299	1
7295	1
7249	1
7160	1
7107	2
7102	1
7084	1
7050	1
6952	1
6931	1
6877	1
6872	1
6858	2
6851	1
6771	1
6751	1
6724	1
6684	2
6653	1
6601	2
6598	2
6596	1
6579	1
6565	1
6554	1
6515	1
6505	2
6491	2
6456	2
6425	2
6405	1
6398	1
6388	1
6363	2
6317	1
6308	1
6197	1
6189	1
6186	1
6134	1
6098	1
6095	1
6029	1
5998	1
5996	1
5978	1
5977	1
5970	2
5969	2
5966	1
5958	1
5949	1
5929	1
5901	1
5864	2
5827	1
5820	2
5767	1
5752	3
5741	2
5725	1
5723	1
5722	2
5617	1
5579	3
5577	2
5550	1
5542	1
5537	1
5506	1
5499	1
5496	1
5461	1
5459	1
5452	2
5451	3
5424	2
5399	2
5383	1
5324	2
5316	1
5282	2
5251	2
5230	2
5218	1
5213	2
5199	3
5178	1
5172	1
5157	1
5151	2
5147	1
5144	1
5068	3
5060	4
5059	1
5027	2
5024	1
5003	1
4996	2
4986	2
4982	1
4980	2
4976	2
4964	1
4941	1
4939	3
4916	2
4893	1
4890	1
4884	1
4872	2
4865	2
4841	2
4834	1
4806	1
4798	1
4790	1
4772	2
4756	3
4749	1
4740	1
4731	1
4728	3
4723	1
4720	2
4710	5
4672	1
4663	2
4654	2
4646	2
4635	1
4623	2
4616	2
4597	3
4593	1
4591	2
4548	2
4526	2
4522	2
4491	1
4474	1
4468	3
4456	2
4449	2
4432	1
4426	3
4418	1
4417	2
4414	1
4390	1
4369	1
4366	2
4333	1
4331	2
4309	2
4300	1
4297	1
4294	3
4288	2
4282	3
4280	1
4277	2
4258	1
4253	2
4226	1
4194	6
4183	1
4176	2
4163	1
4161	2
4150	3
4123	1
4122	2
4119	2
4108	1
4104	1
4102	2
4099	1
4094	1
4090	2
4088	1
4083	1
4081	5
4069	3
4064	2
4061	1
4049	3
4042	2
4035	3
4028	1
4024	4
4023	3
4022	1
3990	2
3984	1
3970	2
3967	1
3963	2
3961	2
3956	4
3931	1
3922	3
3921	2
3918	4
3913	2
3898	3
3896	1
3895	2
3879	4
3875	1
3874	2
3870	5
3859	2
3853	4
3852	2
3851	2
3832	2
3831	1
3827	3
3823	1
3815	2
3802	3
3795	1
3773	2
3764	1
3757	4
3745	1
3737	2
3734	1
3730	1
3723	1
3718	3
3705	2
3701	2
3690	2
3674	2
3634	1
3631	2
3630	2
3622	1
3618	2
3613	3
3610	1
3599	1
3582	2
3579	2
3578	4
3567	2
3565	1
3564	2
3562	1
3559	3
3537	1
3535	3
3524	2
3506	3
3502	1
3500	3
3491	1
3472	4
3462	2
3461	3
3454	2
3453	5
3415	4
3409	3
3402	4
3397	6
3396	1
3378	1
3370	1
3369	1
3331	2
3327	2
3320	2
3312	2
3299	4
3290	2
3287	3
3283	4
3275	2
3271	3
3268	1
3261	2
3259	3
3252	4
3250	2
3227	4
3224	5
3189	4
3188	4
3177	5
3173	2
3169	2
3156	2
3145	1
3115	6
3106	3
3101	2
3098	2
3096	1
3094	3
3087	3
3075	2
3068	4
3054	6
3043	1
3007	1
3002	2
3001	2
2982	2
2980	3
2972	4
2956	1
2954	2
2951	4
2947	1
2946	7
2916	4
2915	2
2903	5
2900	2
2895	2
2889	1
2886	4
2876	2
2870	4
2865	1
2862	3
2857	3
2855	2
2848	4
2840	6
2820	2
2808	2
2804	3
2802	3
2785	5
2777	3
2775	3
2773	1
2771	2
2752	3
2746	1
2742	3
2715	4
2712	3
2699	2
2692	2
2689	2
2686	3
2683	7
2681	1
2676	3
2644	1
2640	3
2626	4
2613	2
2607	6
2597	6
2589	5
2584	5
2579	2
2578	3
2571	3
2533	4
2532	2
2522	4
2506	4
2500	2
2499	3
2483	7
2482	8
2473	4
2471	3
2458	2
2452	2
2429	6
2409	3
2407	5
2400	3
2394	6
2387	4
2377	3
2374	3
2352	1
2337	3
2320	3
2316	3
2301	8
2257	3
2233	1
2232	2
2227	3
2222	3
2215	3
2209	2
2191	3
2189	4
2182	3
2174	5
2160	4
2158	5
2147	4
2136	4
2130	10
2123	3
2075	7
2064	3
2063	4
2055	9
2041	2
2037	7
2028	5
2016	4
2004	5
1994	2
1980	7
1962	5
1943	4
1928	7
1915	4
1879	4
1863	2
1841	5
1840	1
1838	2
1827	10
1795	5
1769	6
1749	3
1739	7
1716	8
1698	7
1691	5
1681	4
1680	4
1661	3
1648	6
1647	5
1631	7
1620	5
1608	4
1529	5
1507	6
1489	8
1472	5
1455	7
1452	5
1394	4
1366	6
1331	4
1241	4
1192	5
1167	6
1156	14
1111	8
1095	6
1079	4
1072	11
12086	1
12012	1
11209	1
11068	1
10558	1
9744	1
9639	2
9553	1
9547	1
8922	3
8696	1
8582	1
8399	1
8087	1
7906	1
7899	1
7793	1
7524	1
7487	1
7443	1
7441	2
7311	1
7300	1
7135	1
7105	2
7089	1
7028	2
7010	2
7007	1
6984	1
6948	1
6946	1
6868	1
6827	1
6774	1
6717	1
6683	1
6673	1
6672	1
6636	2
6633	1
6546	1
6537	1
6498	1
6416	1
6415	1
6368	1
6312	1
6275	1
6255	1
6184	1
6177	1
6105	1
6066	2
6035	1
5956	2
5907	2
5874	1
5817	2
5795	1
5768	2
5760	2
5757	2
5735	1
5671	1
5666	1
5662	2
5602	1
5570	1
5557	2
5521	1
5517	1
5480	1
5479	1
5396	1
5369	2
5341	1
5322	1
5311	2
5289	1
5278	1
5268	1
5250	1
5236	2
5212	2
5196	2
5190	3
5179	1
5141	1
5117	2
5116	2
5113	2
5087	1
5076	1
5051	1
5034	1
5013	1
5008	1
4962	3
4937	2
4936	2
4927	1
4897	2
4878	2
4870	1
4846	2
4840	2
4837	2
4819	1
4794	1
4777	1
4760	2
4746	1
4744	1
4733	1
4716	3
4702	1
4695	3
4669	2
4659	2
4629	2
4620	2
4615	2
4612	3
4583	3
4580	1
4572	2
4565	1
4561	1
4535	3
4500	2
4444	3
4437	1
4375	2
4367	2
4363	2
4351	1
4338	3
4330	3
4287	2
4285	5
4249	1
4247	2
4240	1
4235	1
4233	4
4232	1
4221	1
4204	1
4169	2
4152	1
4118	2
4114	2
4060	2
4058	2
4057	2
4036	1
4029	3
4016	1
4012	2
3994	1
3993	2
3992	3
3991	2
3988	2
3983	1
3981	2
3980	1
3979	1
3977	1
3966	2
3957	3
3942	4
3939	1
3915	1
3914	2
3890	2
3883	3
3881	2
3858	1
3849	3
3833	1
3826	1
3813	1
3791	2
3788	3
3779	4
3774	4
3747	3
3732	2
3727	2
3726	5
3722	3
3692	3
3604	1
3595	3
3580	2
3553	2
3551	1
3550	2
3541	1
3540	1
3529	3
3528	3
3513	4
3512	2
3498	6
3493	1
3485	1
3477	2
3460	2
3452	1
3444	2
3400	3
3398	3
3395	2
3388	3
3385	1
3377	1
3374	3
3354	3
3348	4
3347	1
3322	3
3317	1
3316	2
3309	3
3308	2
3266	5
3242	3
3241	2
3214	1
3208	3
3207	3
3204	1
3166	5
3134	2
3130	1
3129	4
3108	1
3090	4
3063	3
3040	4
3036	4
3032	2
3022	2
3010	4
3009	3
2999	1
2989	3
2976	4
2959	1
2958	1
2955	5
2938	1
2908	3
2907	2
2901	4
2888	4
2858	2
2853	1
2834	3
2832	6
2825	2
2817	2
2799	4
2790	4
2784	3
2781	5
2780	3
2776	6
2772	1
2762	3
2725	2
2716	1
2691	1
2671	2
2661	2
2660	3
2653	3
2643	2
2627	5
2624	2
2595	3
2572	1
2570	6
2546	3
2531	2
2509	3
2421	3
2419	2
2416	3
2395	5
2392	4
2390	2
2385	3
2378	2
2368	4
2331	2
2330	5
2288	3
2279	2
2260	1
2249	7
2200	7
2190	3
2184	3
2180	5
2155	2
2124	4
2101	3
2093	5
2087	2
2040	3
2024	3
1974	3
1972	7
1970	6
1965	2
1921	1
1916	5
1877	3
1856	8
1829	5
1797	4
1785	4
1742	3
1703	5
1695	4
1693	4
1657	7
1607	5
1490	7
1323	6
1297	4
1173	4
1131	4
1120	4
1084	4
12766	1
12329	1
10898	1
9566	2
9070	1
9033	1
8859	1
8540	1
8364	1
8112	1
8055	1
7838	1
7796	2
7387	2
7362	1
7298	1
7254	1
7046	1
7027	1
6836	1
6816	2
6766	1
6611	1
6589	1
6555	1
6492	2
6434	1
6392	1
6361	2
6341	1
6268	2
6257	1
6223	1
6178	1
6173	1
6097	1
5994	1
5973	1
5890	1
5867	1
5773	2
5769	1
5646	3
5622	2
5594	1
5586	1
5565	1
5544	2
5531	1
5519	2
5487	1
5478	1
5476	2
5462	1
5453	2
5349	2
5337	1
5313	1
5306	1
5280	1
5231	1
5207	2
5175	1
5138	1
5132	1
5131	1
5128	1
5111	3
5110	3
5095	1
4998	2
4984	2
4961	1
4932	1
4913	5
4886	1
4885	1
4881	2
4848	1
4839	2
4810	2
4784	1
4782	1
4771	2
4717	2
4676	1
4660	1
4657	2
4656	2
4637	1
4617	1
4604	1
4584	3
4554	3
4539	3
4518	2
4510	2
4495	1
4492	1
4489	1
4457	1
4452	2
4361	1
4354	3
4344	4
4328	2
4324	1
4262	1
4260	1
4244	2
4243	2
4207	2
4203	1
4201	1
4162	2
4136	1
4100	1
4086	1
4025	2
3958	1
3948	2
3929	2
3873	3
3864	3
3839	1
3814	3
3785	2
3780	4
3763	1
3753	1
3720	1
3710	2
3697	2
3683	1
3682	2
3676	3
3651	3
3649	3
3621	2
3583	2
3555	3
3552	5
3534	2
3527	3
3518	3
3499	4
3486	1
3484	1
3483	2
3482	1
3480	1
3479	3
3464	4
3463	2
3459	3
3435	2
3410	1
3379	1
3373	3
3355	2
3344	2
3324	3
3323	1
3300	1
3269	3
3235	1
3234	1
3233	3
3215	1
3206	5
3194	3
3191	1
3174	2
3157	2
3151	3
3146	7
3132	2
3125	1
3113	5
3103	1
3100	3
3091	1
3081	4
3055	2
3021	3
3020	2
2984	2
2960	2
2943	3
2871	2
2859	2
2845	2
2836	2
2831	2
2814	1
2810	2
2796	4
2783	4
2722	4
2695	2
2669	5
2663	2
2649	2
2645	1
2636	2
2635	6
2634	3
2622	4
2604	2
2552	2
2524	2
2520	3
2487	1
2481	3
2467	1
2440	1
2434	5
2427	1
2423	2
2420	5
2413	6
2361	2
2351	4
2289	2
2281	3
2276	1
2263	3
2261	3
2230	4
2220	3
2218	4
2213	5
2201	2
2145	2
2091	3
1991	4
1982	4
1932	6
1919	3
1899	5
1788	2
1719	2
1640	4
1512	3
96	4
93	2
94	2
97	5
1610	3
4543	2
99	10
98	8
95	1
2576	2
5784	1
2679	2
4607	1
3996	1
3360	1
6471	1
2231	4
3349	1
4315	1
4135	1
5022	1
9388	2
3933	1
13755	1
6960	1
5052	1
4855	1
2198	2
5826	1
2837	3
6391	1
5460	1
6330	1
5237	1
8157	2
4530	1
3258	2
5750	2
3286	1
11880	1
7297	1
5417	1
10817	1
7416	1
11565	1
4337	2
9481	1
5893	1
3735	2
4238	3
8387	1
3654	1
6346	1
4688	1
6762	1
8567	1
8054	1
3886	4
3927	1
12299	1
10811	1
2274	5
9072	1
7230	1
3334	4
4093	1
10790	1
14307	1
4786	2
4718	1
4268	1
1666	6
4120	2
5108	1
7619	1
3018	3
4202	2
11541	1
8280	1
8510	1
5264	1
2764	4
11005	1
5812	1
2973	2
5435	1
3183	2
7718	1
9110	1
3923	2
5397	1
8215	1
5522	1
7623	1
17910	1
17122	1
5338	2
3065	3
9413	1
3926	1
3909	1
5320	3
3469	1
3821	2
3862	2
4653	3
5879	2
2053	4
4675	2
4048	1
6668	1
6694	2
6123	1
3938	6
9045	1
4416	1
7887	1
8958	1
3085	1
5639	1
7062	1
6997	1
4345	1
8223	1
7601	1
6401	1
11323	1
5195	2
6088	1
2805	2
3458	1
5434	2
7684	1
8836	1
4008	1
5676	1
6799	2
6225	1
4589	1
19455	1
3935	1
12772	1
6720	1
4296	1
4200	2
4477	1
6844	1
9527	1
4517	2
5553	2
3568	1
7212	1
7152	1
4006	3
3016	2
4519	1
5615	3
4559	2
3738	2
5515	1
3797	4
6138	1
3280	2
3863	4
3383	2
2854	1
2347	2
5780	1
4133	1
6165	1
9665	1
5443	1
4655	1
4384	1
6427	1
8661	1
2424	3
4596	1
4817	2
6249	1
2758	4
8771	1
3079	2
3520	2
11160	1
5416	2
3746	1
5226	1
7403	1
10632	1
7702	1
11224	1
7677	1
4212	1
6329	2
4722	2
10734	1
7696	1
2899	2
5202	1
2657	3
4895	2
4508	1
6403	2
4504	3
4463	2
5130	2
8353	1
6126	1
8205	1
3182	1
4824	1
6975	1
6623	1
6043	1
12788	1
8606	1
6470	1
13114	1
4400	1
3532	1
4157	2
5019	2
10078	1
4451	1
2844	2
7177	1
3639	2
6018	1
2293	2
3133	3
2763	3
7381	1
4624	4
7168	1
7086	1
2529	1
5046	1
3693	2
5592	1
5861	1
3341	2
7142	1
8662	1
3180	1
3062	5
8376	1
7928	1
7112	1
13947	1
6024	1
6899	1
6709	1
3904	1
6658	1
6525	1
8846	1
3277	2
3691	2
4002	1
2319	3
3709	1
1486	2
5309	1
9852	1
3907	1
2202	3
3285	1
4845	1
2523	1
2896	1
2885	2
3236	2
5985	1
4523	2
5009	1
5736	1
6430	1
3936	3
6201	1
5267	1
7781	1
9063	1
8707	1
7293	1
6040	1
5354	2
5042	2
3668	1
7483	1
2203	1
4712	2
9928	1
7881	1
3819	1
6144	1
7310	1
9282	1
6780	1
11663	2
7375	1
14260	1
3329	3
8864	1
3716	1
6417	1
7660	1
6359	1
6305	1
9210	1
10145	1
4905	1
3946	1
9718	1
7810	1
10927	1
6360	1
2631	3
7675	1
4346	1
3371	2
5220	1
7739	1
17914	1
4838	1
8953	1
6811	1
3842	2
3416	1
3892	2
9248	1
6905	1
2470	1
4854	4
9514	1
5374	1
10967	1
2665	2
5037	1
7115	1
4513	3
4935	1
3694	1
9342	1
3202	3
10285	1
4582	2
3897	1
6233	1
8030	1
11223	1
5632	1
6412	1
3533	2
13332	1
4490	1
9318	1
9404	1
15244	1
14723	1
10334	1
15517	1
2484	3
14562	1
4640	2
9417	1
10384	1
3549	1
3975	1
11901	1
7683	1
6814	1
3274	1
7848	2
5456	1
7665	1
4041	1
18743	1
6592	2
7584	1
10554	1
13025	1
3340	3
5943	1
5505	1
5787	1
14526	1
5049	2
5717	1
4481	3
4757	2
3353	3
9344	1
6436	1
5238	1
7287	1
4318	2
6793	2
6556	2
4186	1
5057	1
1758	4
7166	1
2616	1
5270	1
9980	1
3600	2
2166	3
4512	1
2993	1
5191	2
7561	1
10916	1
6076	1
3184	2
2642	2
4930	2
4636	3
5276	1
9181	1
13087	1
4671	3
5729	1
4643	2
6729	1
10750	1
4803	1
8809	1
4377	1
7880	1
7123	1
8765	1
3078	2
7738	1
10950	1
3681	4
2219	2
7393	1
3515	2
3572	1
3229	2
4095	3
9598	1
6295	1
7018	1
5756	1
4305	3
13358	1
9139	1
2617	1
3536	1
7193	1
6961	1
6396	1
2159	4
5235	2
4205	2
10411	1
8343	2
4505	3
7558	1
6062	1
7108	1
13634	1
11904	1
11950	1
3960	1
6994	1
8432	1
6761	1
6114	1
7725	1
18471	1
11916	1
5234	1
6935	1
9976	1
3442	2
7302	1
8672	1
4167	1
2906	3
7494	1
4678	3
4622	1
2051	2
3251	1
5576	1
6227	1
6615	1
4899	1
7646	1
2668	5
11374	1
6583	1
10507	1
4313	1
2221	2
5326	1
5982	1
5085	1
3789	1
2748	2
17941	1
5271	1
7389	1
7967	1
4751	1
6896	1
6147	1
7771	1
4781	1
5079	1
4971	3
4004	2
8578	1
6246	1
5840	1
9568	1
3356	1
4286	1
8589	1
10545	1
1697	5
5836	2
9991	1
8979	1
7017	2
4918	1
8058	1
6692	1
6332	1
5438	1
9322	1
4821	1
9180	1
9491	1
6937	1
5802	1
9003	1
5829	1
3530	1
11557	1
8644	1
5004	3
4388	1
5716	1
3122	2
4077	3
5620	1
3628	2
4278	1
5029	1
7990	1
4876	2
4567	1
3748	2
4603	2
3584	1
2205	2
8515	1
4051	1
6708	1
2216	2
5850	1
6819	1
1209	4
5288	1
4165	1
8858	1
3107	1
5404	2
3603	1
4185	2
12652	1
5061	1
11900	1
2995	2
4910	2
4684	1
4882	1
4587	1
12063	1
4802	1
6213	1
5738	1
4068	2
7716	1
7649	1
4796	1
7022	1
14481	1
6210	1
8141	1
7879	2
6606	1
4849	1
5227	1
6629	1
5986	1
5641	1
7767	1
3790	2
2793	2
4074	1
3664	1
4992	1
7788	1
4511	1
7498	1
11398	1
5661	2
8228	2
10022	1
18227	1
5384	1
8491	1
3834	1
8475	1
6848	1
4833	1
5331	1
1884	2
6883	1
6008	1
10850	1
5263	2
8455	1
11919	1
9089	1
8079	1
5318	1
5776	1
5171	1
12170	1
8712	1
8281	1
5285	2
6550	1
5463	1
7495	1
8101	1
3660	1
5711	1
6190	2
9173	1
5201	1
13972	1
3955	2
5606	1
2902	2
10336	1
6959	1
5200	1
9896	1
9290	1
3792	2
6659	1
1871	2
1995	2
3969	1
2874	1
3669	2
4664	2
5221	2
5170	1
2967	2
6199	1
2225	4
2872	2
2141	2
2735	2
2647	2
2949	2
5588	1
2565	1
6074	1
2694	2
3168	3
2838	1
2890	2
4666	1
4552	1
3953	1
3587	1
2196	4
5120	1
7823	1
4926	1
4753	1
2961	1
5831	1
3888	1
2092	3
3505	1
3620	1
5066	1
4563	2
2072	1
3228	1
8878	1
5090	2
12504	1
3420	2
3585	1
8531	1
4410	1
3673	1
7109	1
3632	2
10959	1
3546	1
7852	1
10511	1
2518	1
5373	1
11499	1
9128	1
6779	1
13443	1
11522	1
4342	1
2562	1
1725	4
8500	1
4843	1
4433	1
7550	1
6943	1
2398	1
1766	2
6818	1
6647	1
4585	1
10315	1
3906	1
2757	3
6211	1
15371	1
3816	2
8738	1
12081	1
6179	1
4633	1
7989	1
5628	1
7471	1
3405	2
5353	1
5959	1
4815	1
7968	1
3511	1
7639	1
3685	3
3698	1
3657	2
3871	2
5101	1
12516	1
7723	1
4758	1
4862	2
3976	1
5153	1
8226	1
5828	1
5681	1
9516	1
1364	3
4787	2
4411	1
6940	1
5534	1
7566	1
5021	1
4197	1
3338	2
4630	1
5585	1
6938	1
8412	1
4681	1
8051	1
2882	2
8132	1
5612	1
2625	2
4820	1
3029	2
9998	1
7569	1
3205	1
8781	1
7523	1
6763	1
8511	1
3725	1
5084	1
5219	1
6873	1
8874	1
2779	5
2629	1
3142	1
7606	1
3999	3
3696	1
3945	1
3809	1
12901	1
5582	1
3647	2
6445	1
10036	1
9506	1
3707	1
18545	1
3035	1
8914	1
1400	4
5899	1
3806	1
3470	1
5433	1
3440	2
3554	1
3426	1
4341	1
2873	1
10084	1
7402	1
7431	1
3367	1
3508	2
3717	2
10594	1
4482	1
5698	1
4103	1
8074	1
7427	1
3431	1
3978	1
3850	1
2031	1
3289	1
2247	1
6447	1
4485	1
6390	1
5244	1
6737	1
6466	1
6042	1
5984	2
4521	1
2819	1
2913	1
6215	2
3633	1
4252	1
2492	1
5158	1
5450	1
3638	1
4473	2
3406	2
3575	1
9105	1
8312	1
3629	1
5232	1
3102	2
5242	1
7106	1
6406	1
5352	1
13943	1
4914	1
6682	1
6917	1
4431	1
3057	1
3775	1
7531	1
7518	1
7179	3
3387	2
7849	1
6013	1
2372	1
7780	1
4650	1
3121	2
5097	1
4332	1
6418	1
6053	1
8454	1
10243	1
8939	1
5444	1
7201	1
5040	1
6932	1
4825	2
6027	1
8358	1
3039	1
3798	1
3675	2
5502	1
6736	1
5972	1
4670	1
5696	1
4055	2
6349	1
13112	1
5536	1
6544	1
6351	1
4507	1
7727	1
5664	1
5470	2
4632	1
4946	1
6627	1
19588	1
4144	1
7442	1
5593	1
8273	1
11886	1
8082	1
2476	2
6545	1
3304	1
5619	1
10668	1
5504	2
3616	1
6103	1
10932	1
8316	1
3333	2
4302	1
5692	1
6083	1
3625	1
8587	1
4424	1
11840	1
7870	1
6499	1
5025	2
5028	1
8234	1
3950	2
2236	3
3762	2
6148	2
9602	1
2448	2
5952	1
7057	1
8552	1
8509	1
6738	1
8383	1
6030	1
5693	1
4052	2
9499	1
2937	3
7175	1
13311	1
5420	1
4586	1
3119	1
13541	1
6395	1
3887	1
8675	1
13237	1
13711	1
7248	1
5911	1
7539	1
2029	2
8690	1
4737	1
4877	1
2945	2
18512	1
6052	1
9135	1
4883	1
5691	1
5430	1
5188	1
10298	1
2706	1
5177	1
5328	1
7783	1
3114	1
2573	1
4059	2
3899	1
8184	1
4599	1
6787	1
4974	1
4339	1
6374	1
8070	1
4241	1
4978	1
4310	2
2431	3
6132	1
5261	1
2963	1
12636	1
4142	1
4230	1
4116	1
3025	2
4039	2
3820	1
3216	2
3751	1
7428	1
4891	1
3987	1
5249	1
4466	1
3607	1
5555	1
6419	1
5633	1
7384	1
2680	1
6286	1
8605	1
4556	1
3413	2
5014	1
3711	1
6974	1
6977	1
4641	1
7450	1
4741	1
7508	1
3031	1
2741	1
14443	1
6638	1
7167	1
8219	1
5357	1
3611	1
4704	1
3118	1
11496	1
5252	1
5114	1
12212	1
5358	1
5761	1
6840	1
6643	1
12489	1
4545	1
11066	1
10033	1
4979	1
5215	1
6304	1
7137	1
9204	1
4514	1
7273	1
6503	1
5875	1
7226	1
3566	1
11202	1
5564	1
4774	1
7658	1
3181	1
12395	1
5377	1
2920	2
3916	1
5912	1
7008	1
7480	2
6739	1
11927	1
4690	1
5847	1
5378	1
2204	1
11593	1
8073	1
5146	1
6129	1
5262	1
7087	1
4871	1
9868	1
7867	1
10267	1
6756	1
5099	2
4284	1
8822	1
6252	1
8563	1
3885	1
6685	1
5841	1
4138	1
7217	1
4947	1
5809	1
4128	1
4538	2
7073	1
3127	1
3421	1
5464	1
5699	1
8677	1
4531	1
4873	1
3741	1
2637	1
8983	1
3985	1
7118	1
4117	1
5866	1
6534	1
8767	1
16859	1
9118	1
6041	1
7662	1
1954	2
5211	1
4727	1
3591	1
5209	1
3965	1
5284	2
6182	1
6507	1
4175	1
3739	2
5559	1
2778	1
1737	2
5255	1
6245	1
5618	1
5755	1
4436	1
5291	1
4460	1
5541	1
5849	1
5856	1
3799	1
3569	1
8617	1
8730	1
7371	1
4409	1
5323	1
5336	1
5043	1
7409	1
4775	1
5992	1
9418	1
4458	1
3226	1
5494	1
7001	1
4180	1
5442	1
4696	1
7865	1
5389	1
9774	1
3623	2
17183	1
4098	1
7562	1
7913	1
5919	1
9440	1
6020	1
5595	1
6732	1
8758	1
10642	1
7650	1
11686	1
5185	1
7991	1
3247	1
4711	1
6167	1
7980	1
17469	1
11234	1
7171	1
8670	1
7714	1
7453	1
9004	1
4276	1
16151	1
6485	1
6965	1
7800	1
7066	1
2615	1
7617	1
4322	2
9166	1
5156	1
12373	1
9075	1
19693	1
4954	1
9015	1
9143	1
1430	2
7352	1
4748	1
6860	1
8218	1
7388	1
5702	1
6207	1
4501	1
5538	1
3597	1
4237	1
7635	1
4340	1
6154	1
8613	1
5233	1
3380	1
5457	1
2860	2
8093	1
6670	1
4316	1
3345	2
6397	1
4464	1
6482	1
11976	1
8828	1
5673	1
3577	1


