Category,Value
Transcripts,78881                                                   
Transcripts >500 bp,25969                                                   
Transcripts >1000 bp,16541                                                   
Average length of assembled transcripts,838.968                                                 
Longest transcript,19693                                                   
Total length,66178674                                                
Transcript N50,2136                                                    
