<?xml version='1.0' encoding='UTF-8' ?>
<svg xmlns='http://www.w3.org/2000/svg' xmlns:xlink='http://www.w3.org/1999/xlink' viewBox='0 0 1080.00 504.00'>
<defs>
  <style type='text/css'><![CDATA[
    line, polyline, polygon, path, rect, circle {
      fill: none;
      stroke: #000000;
      stroke-linecap: round;
      stroke-linejoin: round;
      stroke-miterlimit: 10.00;
    }
  ]]></style>
</defs>
<rect width='100%' height='100%' style='stroke: none; fill: #FFFFFF;'/>
<rect x='0.00' y='0.00' width='1080.00' height='504.00' style='stroke-width: 0.78; stroke: #FFFFFF; fill: #FFFFFF;' />
<defs>
  <clipPath id='cpMTE1LjI1fDEwNzYuMDF8NDU2LjYxfDc4LjIy'>
    <rect x='115.25' y='78.22' width='960.76' height='378.39' />
  </clipPath>
</defs>
<rect x='115.25' y='78.22' width='960.76' height='378.39' style='stroke-width: 0.78; stroke: #FFFFFF; fill: #FFFFFF;' clip-path='url(#cpMTE1LjI1fDEwNzYuMDF8NDU2LjYxfDc4LjIy)' />
<rect x='158.92' y='134.12' width='168.57' height='94.60' style='stroke-width: 1.07; stroke: none; stroke-linecap: square; stroke-linejoin: miter; fill: #0E9AA7;' clip-path='url(#cpMTE1LjI1fDEwNzYuMDF8NDU2LjYxfDc4LjIy)' />
<rect x='327.49' y='134.12' width='417.49' height='94.60' style='stroke-width: 1.07; stroke: none; stroke-linecap: square; stroke-linejoin: miter; fill: #96CEBA;' clip-path='url(#cpMTE1LjI1fDEwNzYuMDF8NDU2LjYxfDc4LjIy)' />
<rect x='744.99' y='134.12' width='163.33' height='94.60' style='stroke-width: 1.07; stroke: none; stroke-linecap: square; stroke-linejoin: miter; fill: #FFCC5C;' clip-path='url(#cpMTE1LjI1fDEwNzYuMDF8NDU2LjYxfDc4LjIy)' />
<rect x='908.32' y='134.12' width='124.03' height='94.60' style='stroke-width: 1.07; stroke: none; stroke-linecap: square; stroke-linejoin: miter; fill: #FF6F69;' clip-path='url(#cpMTE1LjI1fDEwNzYuMDF8NDU2LjYxfDc4LjIy)' />
<rect x='158.92' y='306.11' width='502.22' height='94.60' style='stroke-width: 1.07; stroke: none; stroke-linecap: square; stroke-linejoin: miter; fill: #0E9AA7;' clip-path='url(#cpMTE1LjI1fDEwNzYuMDF8NDU2LjYxfDc4LjIy)' />
<rect x='661.14' y='306.11' width='116.16' height='94.60' style='stroke-width: 1.07; stroke: none; stroke-linecap: square; stroke-linejoin: miter; fill: #96CEBA;' clip-path='url(#cpMTE1LjI1fDEwNzYuMDF8NDU2LjYxfDc4LjIy)' />
<rect x='777.31' y='306.11' width='129.27' height='94.60' style='stroke-width: 1.07; stroke: none; stroke-linecap: square; stroke-linejoin: miter; fill: #FFCC5C;' clip-path='url(#cpMTE1LjI1fDEwNzYuMDF8NDU2LjYxfDc4LjIy)' />
<rect x='906.57' y='306.11' width='125.77' height='94.60' style='stroke-width: 1.07; stroke: none; stroke-linecap: square; stroke-linejoin: miter; fill: #FF6F69;' clip-path='url(#cpMTE1LjI1fDEwNzYuMDF8NDU2LjYxfDc4LjIy)' />
<g clip-path='url(#cpMTE1LjI1fDEwNzYuMDF8NDU2LjYxfDc4LjIy)'><text x='185.13' y='185.33' style='font-size: 11.38px; font-family: Liberation Sans;' textLength='308.37px' lengthAdjust='spacingAndGlyphs'>C:	640	 [S:	184	, D:	456	], F:	178	, M:	136	, n:	954</text></g>
<g clip-path='url(#cpMTE1LjI1fDEwNzYuMDF8NDU2LjYxfDc4LjIy)'><text x='185.13' y='357.33' style='font-size: 11.38px; font-family: Liberation Sans;' textLength='308.37px' lengthAdjust='spacingAndGlyphs'>C:	676	 [S:	549	, D:	127	], F:	141	, M:	137	, n:	954</text></g>
<defs>
  <clipPath id='cpMC4wMHwxMDgwLjAwfDUwNC4wMHwwLjAw'>
    <rect x='0.00' y='0.00' width='1080.00' height='504.00' />
  </clipPath>
</defs>
<polyline points='115.25,456.61 115.25,78.22 ' style='stroke-width: 2.13; stroke-linecap: butt;' clip-path='url(#cpMC4wMHwxMDgwLjAwfDUwNC4wMHwwLjAw)' />
<g clip-path='url(#cpMC4wMHwxMDgwLjAwfDUwNC4wMHwwLjAw)'><text x='13.14' y='357.07' style='font-size: 10.62px; font-style: italic; font-family: Liberation Sans;' textLength='89.18px' lengthAdjust='spacingAndGlyphs'>sponges_meta_TP</text></g>
<g clip-path='url(#cpMC4wMHwxMDgwLjAwfDUwNC4wMHwwLjAw)'><text x='32.63' y='185.07' style='font-size: 10.62px; font-style: italic; font-family: Liberation Sans;' textLength='69.69px' lengthAdjust='spacingAndGlyphs'>sponges_meta</text></g>
<polyline points='103.91,353.41 115.25,353.41 ' style='stroke-width: 0.00; stroke: #FFFFFF; stroke-linecap: butt;' clip-path='url(#cpMC4wMHwxMDgwLjAwfDUwNC4wMHwwLjAw)' />
<polyline points='103.91,181.41 115.25,181.41 ' style='stroke-width: 0.00; stroke: #FFFFFF; stroke-linecap: butt;' clip-path='url(#cpMC4wMHwxMDgwLjAwfDUwNC4wMHwwLjAw)' />
<polyline points='115.25,456.61 1076.01,456.61 ' style='stroke-width: 2.13; stroke-linecap: butt;' clip-path='url(#cpMC4wMHwxMDgwLjAwfDUwNC4wMHwwLjAw)' />
<polyline points='158.92,467.95 158.92,456.61 ' style='stroke-width: 0.78; stroke: #222222; stroke-linecap: butt;' clip-path='url(#cpMC4wMHwxMDgwLjAwfDUwNC4wMHwwLjAw)' />
<polyline points='333.61,467.95 333.61,456.61 ' style='stroke-width: 0.78; stroke: #222222; stroke-linecap: butt;' clip-path='url(#cpMC4wMHwxMDgwLjAwfDUwNC4wMHwwLjAw)' />
<polyline points='508.29,467.95 508.29,456.61 ' style='stroke-width: 0.78; stroke: #222222; stroke-linecap: butt;' clip-path='url(#cpMC4wMHwxMDgwLjAwfDUwNC4wMHwwLjAw)' />
<polyline points='682.98,467.95 682.98,456.61 ' style='stroke-width: 0.78; stroke: #222222; stroke-linecap: butt;' clip-path='url(#cpMC4wMHwxMDgwLjAwfDUwNC4wMHwwLjAw)' />
<polyline points='857.66,467.95 857.66,456.61 ' style='stroke-width: 0.78; stroke: #222222; stroke-linecap: butt;' clip-path='url(#cpMC4wMHwxMDgwLjAwfDUwNC4wMHwwLjAw)' />
<polyline points='1032.34,467.95 1032.34,456.61 ' style='stroke-width: 0.78; stroke: #222222; stroke-linecap: butt;' clip-path='url(#cpMC4wMHwxMDgwLjAwfDUwNC4wMHwwLjAw)' />
<g clip-path='url(#cpMC4wMHwxMDgwLjAwfDUwNC4wMHwwLjAw)'><text x='155.97' y='476.85' style='font-size: 10.62px; font-family: Liberation Sans;' textLength='5.91px' lengthAdjust='spacingAndGlyphs'>0</text></g>
<g clip-path='url(#cpMC4wMHwxMDgwLjAwfDUwNC4wMHwwLjAw)'><text x='327.70' y='476.85' style='font-size: 10.62px; font-family: Liberation Sans;' textLength='11.82px' lengthAdjust='spacingAndGlyphs'>20</text></g>
<g clip-path='url(#cpMC4wMHwxMDgwLjAwfDUwNC4wMHwwLjAw)'><text x='502.38' y='476.85' style='font-size: 10.62px; font-family: Liberation Sans;' textLength='11.82px' lengthAdjust='spacingAndGlyphs'>40</text></g>
<g clip-path='url(#cpMC4wMHwxMDgwLjAwfDUwNC4wMHwwLjAw)'><text x='677.07' y='476.85' style='font-size: 10.62px; font-family: Liberation Sans;' textLength='11.82px' lengthAdjust='spacingAndGlyphs'>60</text></g>
<g clip-path='url(#cpMC4wMHwxMDgwLjAwfDUwNC4wMHwwLjAw)'><text x='851.75' y='476.85' style='font-size: 10.62px; font-family: Liberation Sans;' textLength='11.82px' lengthAdjust='spacingAndGlyphs'>80</text></g>
<g clip-path='url(#cpMC4wMHwxMDgwLjAwfDUwNC4wMHwwLjAw)'><text x='1023.48' y='476.85' style='font-size: 10.62px; font-family: Liberation Sans;' textLength='17.73px' lengthAdjust='spacingAndGlyphs'>100</text></g>
<g clip-path='url(#cpMC4wMHwxMDgwLjAwfDUwNC4wMHwwLjAw)'><text x='595.63' y='487.65' style='font-size: 9.60px; font-family: Liberation Sans;' textLength='0.00px' lengthAdjust='spacingAndGlyphs'></text></g>
<g clip-path='url(#cpMC4wMHwxMDgwLjAwfDUwNC4wMHwwLjAw)'><text x='571.90' y='498.02' style='font-size: 9.60px; font-family: Liberation Sans;' textLength='47.47px' lengthAdjust='spacingAndGlyphs'>%BUSCOs</text></g>
<rect x='420.74' y='23.73' width='349.78' height='46.52' style='stroke-width: 0.78; stroke: none; fill: #FFFFFF;' clip-path='url(#cpMC4wMHwxMDgwLjAwfDUwNC4wMHwwLjAw)' />
<rect x='428.71' y='27.72' width='17.28' height='17.28' style='stroke-width: 0.78; stroke: none; fill: #F2F2F2;' clip-path='url(#cpMC4wMHwxMDgwLjAwfDUwNC4wMHwwLjAw)' />
<rect x='429.42' y='28.42' width='15.86' height='15.86' style='stroke-width: 1.07; stroke: none; stroke-linecap: square; stroke-linejoin: miter; fill: #0E9AA7;' clip-path='url(#cpMC4wMHwxMDgwLjAwfDUwNC4wMHwwLjAw)' />
<rect x='604.42' y='27.72' width='17.28' height='17.28' style='stroke-width: 0.78; stroke: none; fill: #F2F2F2;' clip-path='url(#cpMC4wMHwxMDgwLjAwfDUwNC4wMHwwLjAw)' />
<rect x='605.13' y='28.42' width='15.86' height='15.86' style='stroke-width: 1.07; stroke: none; stroke-linecap: square; stroke-linejoin: miter; fill: #96CEBA;' clip-path='url(#cpMC4wMHwxMDgwLjAwfDUwNC4wMHwwLjAw)' />
<rect x='428.71' y='48.98' width='17.28' height='17.28' style='stroke-width: 0.78; stroke: none; fill: #F2F2F2;' clip-path='url(#cpMC4wMHwxMDgwLjAwfDUwNC4wMHwwLjAw)' />
<rect x='429.42' y='49.69' width='15.86' height='15.86' style='stroke-width: 1.07; stroke: none; stroke-linecap: square; stroke-linejoin: miter; fill: #FFCC5C;' clip-path='url(#cpMC4wMHwxMDgwLjAwfDUwNC4wMHwwLjAw)' />
<rect x='604.42' y='48.98' width='17.28' height='17.28' style='stroke-width: 0.78; stroke: none; fill: #F2F2F2;' clip-path='url(#cpMC4wMHwxMDgwLjAwfDUwNC4wMHwwLjAw)' />
<rect x='605.13' y='49.69' width='15.86' height='15.86' style='stroke-width: 1.07; stroke: none; stroke-linecap: square; stroke-linejoin: miter; fill: #FF6F69;' clip-path='url(#cpMC4wMHwxMDgwLjAwfDUwNC4wMHwwLjAw)' />
<g clip-path='url(#cpMC4wMHwxMDgwLjAwfDUwNC4wMHwwLjAw)'><text x='449.98' y='39.66' style='font-size: 9.60px; font-family: Liberation Sans;' textLength='150.45px' lengthAdjust='spacingAndGlyphs'> Complete (C) and single-copy (S)  </text></g>
<g clip-path='url(#cpMC4wMHwxMDgwLjAwfDUwNC4wMHwwLjAw)'><text x='625.68' y='39.66' style='font-size: 9.60px; font-family: Liberation Sans;' textLength='140.86px' lengthAdjust='spacingAndGlyphs'> Complete (C) and duplicated (D)</text></g>
<g clip-path='url(#cpMC4wMHwxMDgwLjAwfDUwNC4wMHwwLjAw)'><text x='449.98' y='60.92' style='font-size: 9.60px; font-family: Liberation Sans;' textLength='74.69px' lengthAdjust='spacingAndGlyphs'> Fragmented (F)  </text></g>
<g clip-path='url(#cpMC4wMHwxMDgwLjAwfDUwNC4wMHwwLjAw)'><text x='625.68' y='60.92' style='font-size: 9.60px; font-family: Liberation Sans;' textLength='52.27px' lengthAdjust='spacingAndGlyphs'> Missing (M)</text></g>
<g clip-path='url(#cpMC4wMHwxMDgwLjAwfDUwNC4wMHwwLjAw)'><text x='115.25' y='16.09' style='font-size: 17.60px; font-weight: bold; font-family: Liberation Sans;' textLength='403.95px' lengthAdjust='spacingAndGlyphs'>BUSCO Assessment Results - Trinity vs TransPi</text></g>
</svg>
