<?xml version='1.0' encoding='UTF-8' ?>
<svg xmlns='http://www.w3.org/2000/svg' xmlns:xlink='http://www.w3.org/1999/xlink' viewBox='0 0 1080.00 504.00'>
<defs>
  <style type='text/css'><![CDATA[
    line, polyline, polygon, path, rect, circle {
      fill: none;
      stroke: #000000;
      stroke-linecap: round;
      stroke-linejoin: round;
      stroke-miterlimit: 10.00;
    }
  ]]></style>
</defs>
<rect width='100%' height='100%' style='stroke: none; fill: #FFFFFF;'/>
<rect x='-0.00000000000013' y='0.00' width='1080.00' height='504.00' style='stroke-width: 0.78; stroke: #FFFFFF; fill: #FFFFFF;' />
<defs>
  <clipPath id='cpMjEwLjMwfDEwNzYuMDF8NDU2LjYxfDc4LjIy'>
    <rect x='210.30' y='78.22' width='865.71' height='378.39' />
  </clipPath>
</defs>
<rect x='210.30' y='78.22' width='865.71' height='378.39' style='stroke-width: 0.78; stroke: #FFFFFF; fill: #FFFFFF;' clip-path='url(#cpMjEwLjMwfDEwNzYuMDF8NDU2LjYxfDc4LjIy)' />
<rect x='249.65' y='134.12' width='272.31' height='94.60' style='stroke-width: 1.07; stroke: none; stroke-linecap: square; stroke-linejoin: miter; fill: #0E9AA7;' clip-path='url(#cpMjEwLjMwfDEwNzYuMDF8NDU2LjYxfDc4LjIy)' />
<rect x='521.96' y='134.12' width='315.59' height='94.60' style='stroke-width: 1.07; stroke: none; stroke-linecap: square; stroke-linejoin: miter; fill: #96CEBA;' clip-path='url(#cpMjEwLjMwfDEwNzYuMDF8NDU2LjYxfDc4LjIy)' />
<rect x='837.55' y='134.12' width='140.09' height='94.60' style='stroke-width: 1.07; stroke: none; stroke-linecap: square; stroke-linejoin: miter; fill: #FFCC5C;' clip-path='url(#cpMjEwLjMwfDEwNzYuMDF8NDU2LjYxfDc4LjIy)' />
<rect x='977.64' y='134.12' width='59.03' height='94.60' style='stroke-width: 1.07; stroke: none; stroke-linecap: square; stroke-linejoin: miter; fill: #FF6F69;' clip-path='url(#cpMjEwLjMwfDEwNzYuMDF8NDU2LjYxfDc4LjIy)' />
<rect x='249.65' y='306.11' width='510.77' height='94.60' style='stroke-width: 1.07; stroke: none; stroke-linecap: square; stroke-linejoin: miter; fill: #0E9AA7;' clip-path='url(#cpMjEwLjMwfDEwNzYuMDF8NDU2LjYxfDc4LjIy)' />
<rect x='760.42' y='306.11' width='133.79' height='94.60' style='stroke-width: 1.07; stroke: none; stroke-linecap: square; stroke-linejoin: miter; fill: #96CEBA;' clip-path='url(#cpMjEwLjMwfDEwNzYuMDF8NDU2LjYxfDc4LjIy)' />
<rect x='894.22' y='306.11' width='84.21' height='94.60' style='stroke-width: 1.07; stroke: none; stroke-linecap: square; stroke-linejoin: miter; fill: #FFCC5C;' clip-path='url(#cpMjEwLjMwfDEwNzYuMDF8NDU2LjYxfDc4LjIy)' />
<rect x='978.43' y='306.11' width='58.24' height='94.60' style='stroke-width: 1.07; stroke: none; stroke-linecap: square; stroke-linejoin: miter; fill: #FF6F69;' clip-path='url(#cpMjEwLjMwfDEwNzYuMDF8NDU2LjYxfDc4LjIy)' />
<g clip-path='url(#cpMjEwLjMwfDEwNzYuMDF8NDU2LjYxfDc4LjIy)'><text x='273.26' y='185.33' style='font-size: 11.38px; font-family: Liberation Sans;' textLength='302.04px' lengthAdjust='spacingAndGlyphs'>C:	730	 [S:	338	, D:	392	], F:	174	, M:	74	, n:	978</text></g>
<g clip-path='url(#cpMjEwLjMwfDEwNzYuMDF8NDU2LjYxfDc4LjIy)'><text x='273.26' y='357.33' style='font-size: 11.38px; font-family: Liberation Sans;' textLength='302.04px' lengthAdjust='spacingAndGlyphs'>C:	801	 [S:	635	, D:	166	], F:	105	, M:	72	, n:	978</text></g>
<defs>
  <clipPath id='cpMC4wMHwxMDgwLjAwfDUwNC4wMHwwLjAw'>
    <rect x='0.00' y='0.00' width='1080.00' height='504.00' />
  </clipPath>
</defs>
<polyline points='210.30,456.61 210.30,78.22 ' style='stroke-width: 2.13; stroke-linecap: butt;' clip-path='url(#cpMC4wMHwxMDgwLjAwfDUwNC4wMHwwLjAw)' />
<g clip-path='url(#cpMC4wMHwxMDgwLjAwfDUwNC4wMHwwLjAw)'><text x='13.14' y='357.07' style='font-size: 10.62px; font-style: italic; font-family: Liberation Sans;' textLength='184.23px' lengthAdjust='spacingAndGlyphs'>GW3586-MetaTrans_G_GB_P_PB_TP</text></g>
<g clip-path='url(#cpMC4wMHwxMDgwLjAwfDUwNC4wMHwwLjAw)'><text x='32.63' y='185.07' style='font-size: 10.62px; font-style: italic; font-family: Liberation Sans;' textLength='164.74px' lengthAdjust='spacingAndGlyphs'>GW3586-MetaTrans_G_GB_P_PB</text></g>
<polyline points='198.96,353.41 210.30,353.41 ' style='stroke-width: 0.00; stroke: #FFFFFF; stroke-linecap: butt;' clip-path='url(#cpMC4wMHwxMDgwLjAwfDUwNC4wMHwwLjAw)' />
<polyline points='198.96,181.41 210.30,181.41 ' style='stroke-width: 0.00; stroke: #FFFFFF; stroke-linecap: butt;' clip-path='url(#cpMC4wMHwxMDgwLjAwfDUwNC4wMHwwLjAw)' />
<polyline points='210.30,456.61 1076.01,456.61 ' style='stroke-width: 2.13; stroke-linecap: butt;' clip-path='url(#cpMC4wMHwxMDgwLjAwfDUwNC4wMHwwLjAw)' />
<polyline points='249.65,467.95 249.65,456.61 ' style='stroke-width: 0.78; stroke: #222222; stroke-linecap: butt;' clip-path='url(#cpMC4wMHwxMDgwLjAwfDUwNC4wMHwwLjAw)' />
<polyline points='407.06,467.95 407.06,456.61 ' style='stroke-width: 0.78; stroke: #222222; stroke-linecap: butt;' clip-path='url(#cpMC4wMHwxMDgwLjAwfDUwNC4wMHwwLjAw)' />
<polyline points='564.46,467.95 564.46,456.61 ' style='stroke-width: 0.78; stroke: #222222; stroke-linecap: butt;' clip-path='url(#cpMC4wMHwxMDgwLjAwfDUwNC4wMHwwLjAw)' />
<polyline points='721.86,467.95 721.86,456.61 ' style='stroke-width: 0.78; stroke: #222222; stroke-linecap: butt;' clip-path='url(#cpMC4wMHwxMDgwLjAwfDUwNC4wMHwwLjAw)' />
<polyline points='879.26,467.95 879.26,456.61 ' style='stroke-width: 0.78; stroke: #222222; stroke-linecap: butt;' clip-path='url(#cpMC4wMHwxMDgwLjAwfDUwNC4wMHwwLjAw)' />
<polyline points='1036.66,467.95 1036.66,456.61 ' style='stroke-width: 0.78; stroke: #222222; stroke-linecap: butt;' clip-path='url(#cpMC4wMHwxMDgwLjAwfDUwNC4wMHwwLjAw)' />
<g clip-path='url(#cpMC4wMHwxMDgwLjAwfDUwNC4wMHwwLjAw)'><text x='246.70' y='476.85' style='font-size: 10.62px; font-family: Liberation Sans;' textLength='5.91px' lengthAdjust='spacingAndGlyphs'>0</text></g>
<g clip-path='url(#cpMC4wMHwxMDgwLjAwfDUwNC4wMHwwLjAw)'><text x='401.15' y='476.85' style='font-size: 10.62px; font-family: Liberation Sans;' textLength='11.82px' lengthAdjust='spacingAndGlyphs'>20</text></g>
<g clip-path='url(#cpMC4wMHwxMDgwLjAwfDUwNC4wMHwwLjAw)'><text x='558.55' y='476.85' style='font-size: 10.62px; font-family: Liberation Sans;' textLength='11.82px' lengthAdjust='spacingAndGlyphs'>40</text></g>
<g clip-path='url(#cpMC4wMHwxMDgwLjAwfDUwNC4wMHwwLjAw)'><text x='715.95' y='476.85' style='font-size: 10.62px; font-family: Liberation Sans;' textLength='11.82px' lengthAdjust='spacingAndGlyphs'>60</text></g>
<g clip-path='url(#cpMC4wMHwxMDgwLjAwfDUwNC4wMHwwLjAw)'><text x='873.35' y='476.85' style='font-size: 10.62px; font-family: Liberation Sans;' textLength='11.82px' lengthAdjust='spacingAndGlyphs'>80</text></g>
<g clip-path='url(#cpMC4wMHwxMDgwLjAwfDUwNC4wMHwwLjAw)'><text x='1027.80' y='476.85' style='font-size: 10.62px; font-family: Liberation Sans;' textLength='17.73px' lengthAdjust='spacingAndGlyphs'>100</text></g>
<g clip-path='url(#cpMC4wMHwxMDgwLjAwfDUwNC4wMHwwLjAw)'><text x='643.16' y='487.65' style='font-size: 9.60px; font-family: Liberation Sans;' textLength='0.00px' lengthAdjust='spacingAndGlyphs'></text></g>
<g clip-path='url(#cpMC4wMHwxMDgwLjAwfDUwNC4wMHwwLjAw)'><text x='619.42' y='498.02' style='font-size: 9.60px; font-family: Liberation Sans;' textLength='47.47px' lengthAdjust='spacingAndGlyphs'>%BUSCOs</text></g>
<rect x='468.27' y='23.73' width='349.78' height='46.52' style='stroke-width: 0.78; stroke: none; fill: #FFFFFF;' clip-path='url(#cpMC4wMHwxMDgwLjAwfDUwNC4wMHwwLjAw)' />
<rect x='476.24' y='27.72' width='17.28' height='17.28' style='stroke-width: 0.78; stroke: none; fill: #F2F2F2;' clip-path='url(#cpMC4wMHwxMDgwLjAwfDUwNC4wMHwwLjAw)' />
<rect x='476.95' y='28.42' width='15.86' height='15.86' style='stroke-width: 1.07; stroke: none; stroke-linecap: square; stroke-linejoin: miter; fill: #0E9AA7;' clip-path='url(#cpMC4wMHwxMDgwLjAwfDUwNC4wMHwwLjAw)' />
<rect x='651.94' y='27.72' width='17.28' height='17.28' style='stroke-width: 0.78; stroke: none; fill: #F2F2F2;' clip-path='url(#cpMC4wMHwxMDgwLjAwfDUwNC4wMHwwLjAw)' />
<rect x='652.65' y='28.42' width='15.86' height='15.86' style='stroke-width: 1.07; stroke: none; stroke-linecap: square; stroke-linejoin: miter; fill: #96CEBA;' clip-path='url(#cpMC4wMHwxMDgwLjAwfDUwNC4wMHwwLjAw)' />
<rect x='476.24' y='48.98' width='17.28' height='17.28' style='stroke-width: 0.78; stroke: none; fill: #F2F2F2;' clip-path='url(#cpMC4wMHwxMDgwLjAwfDUwNC4wMHwwLjAw)' />
<rect x='476.95' y='49.69' width='15.86' height='15.86' style='stroke-width: 1.07; stroke: none; stroke-linecap: square; stroke-linejoin: miter; fill: #FFCC5C;' clip-path='url(#cpMC4wMHwxMDgwLjAwfDUwNC4wMHwwLjAw)' />
<rect x='651.94' y='48.98' width='17.28' height='17.28' style='stroke-width: 0.78; stroke: none; fill: #F2F2F2;' clip-path='url(#cpMC4wMHwxMDgwLjAwfDUwNC4wMHwwLjAw)' />
<rect x='652.65' y='49.69' width='15.86' height='15.86' style='stroke-width: 1.07; stroke: none; stroke-linecap: square; stroke-linejoin: miter; fill: #FF6F69;' clip-path='url(#cpMC4wMHwxMDgwLjAwfDUwNC4wMHwwLjAw)' />
<g clip-path='url(#cpMC4wMHwxMDgwLjAwfDUwNC4wMHwwLjAw)'><text x='497.50' y='39.66' style='font-size: 9.60px; font-family: Liberation Sans;' textLength='150.45px' lengthAdjust='spacingAndGlyphs'> Complete (C) and single-copy (S)  </text></g>
<g clip-path='url(#cpMC4wMHwxMDgwLjAwfDUwNC4wMHwwLjAw)'><text x='673.21' y='39.66' style='font-size: 9.60px; font-family: Liberation Sans;' textLength='140.86px' lengthAdjust='spacingAndGlyphs'> Complete (C) and duplicated (D)</text></g>
<g clip-path='url(#cpMC4wMHwxMDgwLjAwfDUwNC4wMHwwLjAw)'><text x='497.50' y='60.92' style='font-size: 9.60px; font-family: Liberation Sans;' textLength='74.69px' lengthAdjust='spacingAndGlyphs'> Fragmented (F)  </text></g>
<g clip-path='url(#cpMC4wMHwxMDgwLjAwfDUwNC4wMHwwLjAw)'><text x='673.21' y='60.92' style='font-size: 9.60px; font-family: Liberation Sans;' textLength='52.27px' lengthAdjust='spacingAndGlyphs'> Missing (M)</text></g>
<g clip-path='url(#cpMC4wMHwxMDgwLjAwfDUwNC4wMHwwLjAw)'><text x='210.30' y='16.09' style='font-size: 17.60px; font-weight: bold; font-family: Liberation Sans;' textLength='403.95px' lengthAdjust='spacingAndGlyphs'>BUSCO Assessment Results - Trinity vs TransPi</text></g>
</svg>
